<?xml version="1.0" encoding="utf-8"?>
<!-- Generator: Adobe Illustrator 24.1.0, SVG Export Plug-In . SVG Version: 6.00 Build 0)  -->
<svg version="1.1" id="Слой_1" xmlns="http://www.w3.org/2000/svg" xmlns:xlink="http://www.w3.org/1999/xlink" x="0px" y="0px"
	 viewBox="0 0 756.12 539.09" style="enable-background:new 0 0 756.12 539.09;" xml:space="preserve">
<style type="text/css">
	.st0{fill:#263852;}
	.st1{font-family:'Arial-BoldMT';}
	.st2{font-size:18px;}
	.st3{fill:#FFFFFF;stroke:#1D3651;stroke-width:2;stroke-linecap:round;stroke-dasharray:2.01,6.03;}
	.st4{fill:#61CAD6;stroke:#263852;stroke-width:2;}
	.st5{fill:#FFFFFF;stroke:#263852;stroke-width:2;stroke-linecap:round;stroke-linejoin:round;}
	.st6{fill:#FFFFFF;stroke:#263852;stroke-width:1.9999;stroke-linecap:round;stroke-linejoin:round;stroke-miterlimit:3.9998;}
	
		.st7{fill-rule:evenodd;clip-rule:evenodd;fill:#CEDB56;stroke:#263852;stroke-width:2;stroke-linecap:round;stroke-linejoin:round;}
	.st8{fill:none;stroke:#263852;stroke-width:2;}
	.st9{fill:#1D3651;}
	.st10{fill:none;stroke:#263852;stroke-width:2;stroke-linecap:round;stroke-linejoin:round;}
	.st11{fill:none;stroke:#1D3651;stroke-width:2;stroke-linecap:round;stroke-dasharray:2.01,6.03;}
	.st12{fill:#FFC239;stroke:#263852;stroke-width:2;stroke-linecap:round;}
	.st13{fill:none;stroke:#263953;stroke-width:1.4;stroke-linecap:round;stroke-linejoin:round;}
	.st14{fill:#263953;}
	.st15{fill:#CCCCCC;stroke:#263953;stroke-width:2;stroke-linecap:round;stroke-linejoin:round;}
	.st16{fill:#CEDB56;stroke:#263852;stroke-width:2;}
	.st17{fill:#FFFFFF;stroke:#263953;stroke-width:2;stroke-linecap:round;stroke-linejoin:round;}
	.st18{fill:#3BC2D7;stroke:#263953;stroke-width:1.9999;stroke-linecap:round;stroke-linejoin:round;stroke-miterlimit:3.9998;}
	.st19{fill:url(#SVGID_1_);}
	.st20{fill:#FFFFFF;}
	.st21{fill:#D35D47;stroke:#263852;stroke-width:2;stroke-miterlimit:10;}
	.st22{fill:#263852;stroke:#263852;stroke-width:2;stroke-miterlimit:10;}
	.st23{fill:none;stroke:#263852;stroke-width:2;stroke-linecap:round;}
	.st24{fill:#FBFCCA;stroke:#1D3651;stroke-width:2;stroke-linecap:round;stroke-linejoin:round;}
	.st25{fill:#FAFC9F;stroke:#1D3651;stroke-width:2;stroke-linecap:round;stroke-linejoin:round;}
	.st26{fill:#E6ED7E;stroke:#1D3651;stroke-width:2;stroke-linecap:round;stroke-linejoin:round;}
	.st27{fill:#CCD962;stroke:#1D3651;stroke-width:2;stroke-linecap:round;stroke-linejoin:round;}
	.st28{fill:#FFC239;stroke:#1D3550;stroke-width:2;stroke-linecap:round;}
	.st29{fill:none;stroke:#263953;stroke-width:2;stroke-linecap:round;stroke-linejoin:round;}
	.st30{fill:none;stroke:#1D3550;stroke-width:2;stroke-linecap:round;stroke-linejoin:round;}
	.st31{fill:#FFFFFF;stroke:#1D3651;stroke-width:2;stroke-linecap:round;stroke-linejoin:round;}
	.st32{fill:#3BC2D7;stroke:#263953;stroke-width:2;stroke-linecap:round;stroke-linejoin:round;}
	.st33{font-size:17.288px;}
	.st34{font-size:17.2868px;}
	.st35{font-size:17.2882px;}
	.st36{font-size:17.2876px;}
	.st37{fill:none;stroke:#3BC2D7;stroke-width:2.9999;stroke-linecap:round;stroke-linejoin:round;stroke-miterlimit:3.9998;}
	.st38{fill:none;stroke:#CCD962;stroke-width:1.9999;stroke-linecap:round;stroke-linejoin:round;stroke-miterlimit:3.9998;}
</style>
<text transform="matrix(1 0 0 1 114.9196 510.3191)" class="st0 st1 st2">DATA PRODUCT</text>
<text transform="matrix(1 0 0 1 502.1172 514.1205)" class="st0 st1 st2">PREPARE DATA</text>
<text transform="matrix(1 0 0 1 529.8564 237.0439)" class="st0 st1 st2">PERSIST</text>
<text transform="matrix(1 0 0 1 145.7715 237.0439)" class="st0 st1 st2">INGEST</text>
<g>
	<path class="st3" d="M287.01,196.2h-204c-11.7,0-21.2-9.5-21.2-21.2V28.9c0-11.7,9.5-21.2,21.2-21.2h204c11.7,0,21.2,9.5,21.2,21.2
		V175C308.21,186.7,298.71,196.2,287.01,196.2z"/>
	<rect x="235.11" y="92" class="st4" width="9.1" height="27.9"/>
	<polygon class="st5" points="195.91,71.5 195.91,140.4 235.11,119.9 235.11,92 	"/>
	<circle class="st5" cx="117.21" cy="82.4" r="16.3"/>
	<ellipse class="st6" cx="171.79" cy="48.01" rx="16.3" ry="16.3"/>
	<path class="st4" d="M178.11,44.8c-0.7-2.5-3.1-4.3-6.1-4.3c-2.9,0-5.4,1.8-6.1,4.3h-0.5c-2.2,0-4,1.8-4,4s1.8,4,4,4h12
		c2.2,0,4-1.8,4-4C181.71,46.7,180.11,45.1,178.11,44.8z"/>
	<ellipse class="st6" cx="166.41" cy="166.01" rx="16.3" ry="16.3"/>
	<path class="st7" d="M170.31,160.1c-0.8-0.5-1.6-0.9-2.5-1.1l-0.4-1.6c-0.7-0.1-1.4-0.1-2.1,0l-0.4,1.6c-0.9,0.2-1.7,0.6-2.5,1.1
		l-1.3-0.9c-0.6,0.5-1.1,1-1.5,1.4l0.9,1.3c-0.5,0.8-0.9,1.6-1.1,2.5l-1.6,0.4c0,0.4-0.1,0.7-0.1,1.1s0,0.7,0.1,1.1l1.6,0.4
		c0.2,0.9,0.6,1.7,1.1,2.5l-0.9,1.3c0.4,0.6,1,1.1,1.4,1.4l1.3-0.9c0.8,0.5,1.6,0.9,2.5,1.1l0.4,1.6c0.4,0,0.7,0.1,1.1,0.1
		c0.4,0,0.7,0,1.1-0.1l0.4-1.6c0.9-0.2,1.7-0.6,2.5-1.1l1.3,0.9c0.6-0.4,1.1-1,1.4-1.4l-0.9-1.3c0.5-0.8,0.9-1.6,1.1-2.5l1.6-0.4
		c0-0.4,0.1-0.7,0.1-1.1s0-0.7-0.1-1.1l-1.6-0.4c-0.2-0.9-0.6-1.7-1.1-2.5l0.9-1.3c-0.5-0.6-1-1.1-1.4-1.5L170.31,160.1z
		 M170.51,166c0,2.3-1.8,4.1-4.1,4.1c-2.3,0-4.1-1.8-4.1-4.1s1.8-4.1,4.1-4.1l0,0C168.71,161.8,170.51,163.7,170.51,166L170.51,166z
		"/>
	<circle class="st8" cx="116.51" cy="82.6" r="7.9"/>
	<circle class="st9" cx="113.21" cy="83.2" r="2.1"/>
	<circle class="st9" cx="116.11" cy="77.6" r="1.3"/>
	<circle class="st9" cx="120.01" cy="85.4" r="1.3"/>
	<line class="st8" x1="114.01" y1="82.2" x2="115.81" y2="78.1"/>
	<line class="st8" x1="114.31" y1="83.7" x2="119.71" y2="85.7"/>
	<line class="st10" x1="114.71" y1="83.1" x2="118.41" y2="81.6"/>
	<polyline class="st10" points="244.81,101 269.31,101 269.31,63.8 	"/>
	<polyline class="st10" points="244.61,107.1 276.31,107.1 276.31,63.6 	"/>
	<polyline class="st11" points="195.81,91.3 172.21,91.3 172.21,64.2 	"/>
	<polyline class="st11" points="195.91,134.6 139.41,134.6 139.41,113 143.91,113 	"/>
	<polyline class="st11" points="195.91,115.5 182.71,115.5 182.71,142.3 	"/>
	<polyline class="st11" points="166.71,149.7 166.71,142.3 182.71,142.3 	"/>
	<polyline class="st11" points="195.51,105.8 117.11,105.8 117.21,98.6 	"/>
	<circle class="st5" cx="159.81" cy="114.1" r="16.3"/>
	<path class="st12" d="M166.51,111.9h-13.3c-1,0-1.8-0.8-1.8-1.8v-0.8c0-1,0.8-1.8,1.8-1.8h13.3c1,0,1.8,0.8,1.8,1.8v0.8
		C168.31,111.1,167.41,111.9,166.51,111.9z"/>
	<path class="st12" d="M166.51,116.3h-13.3c-1,0-1.8-0.8-1.8-1.8v-0.8c0-1,0.8-1.8,1.8-1.8h13.3c1,0,1.8,0.8,1.8,1.8v0.8
		C168.31,115.5,167.41,116.3,166.51,116.3z"/>
	<path class="st12" d="M166.51,120.7h-13.3c-1,0-1.8-0.8-1.8-1.8v-0.8c0-1,0.8-1.8,1.8-1.8h13.3c1,0,1.8,0.8,1.8,1.8v0.8
		C168.31,119.9,167.41,120.7,166.51,120.7z"/>
</g>
<g>
	<g>
		<g>
			<g>
				<g>
					<line class="st13" x1="313.26" y1="374.85" x2="435.34" y2="374.26"/>
					<g>
						<polygon class="st14" points="430.73,380 429.77,378.98 434.8,374.26 429.72,369.58 430.67,368.55 436.86,374.25 						"/>
					</g>
				</g>
			</g>
		</g>
	</g>
	<g>
		<g>
			<g>
				<g>
					<line class="st13" x1="439.06" y1="394.75" x2="316.97" y2="394.25"/>
					<g>
						<polygon class="st14" points="321.64,388.55 322.59,389.58 317.51,394.26 322.55,398.98 321.59,400 315.46,394.25 						"/>
					</g>
				</g>
			</g>
		</g>
	</g>
</g>
<g>
	<g>
		<g>
			<g>
				<g>
					<line class="st13" x1="313.16" y1="92.3" x2="435.24" y2="91.71"/>
					<g>
						<polygon class="st14" points="430.63,97.46 429.67,96.43 434.7,91.71 429.62,87.04 430.57,86.01 436.76,91.7 						"/>
					</g>
				</g>
			</g>
		</g>
	</g>
	<g>
		<g>
			<g>
				<g>
					<line class="st13" x1="438.96" y1="112.2" x2="316.87" y2="111.71"/>
					<g>
						<polygon class="st14" points="321.54,106 322.49,107.03 317.41,111.71 322.45,116.43 321.49,117.45 315.36,111.7 						"/>
					</g>
				</g>
			</g>
		</g>
	</g>
</g>
<g>
	<path class="st3" d="M284.71,469.48h-204c-11.7,0-21.2-9.5-21.2-21.2v-146.1c0-11.7,9.5-21.2,21.2-21.2h204
		c11.7,0,21.2,9.5,21.2,21.2v146.1C306.01,459.98,296.51,469.48,284.71,469.48z"/>
	<path class="st15" d="M139.51,359.88l46.6-16l0.6,0.2l46.8,15.7c-3.1,26.5-19.8,47.4-41.1,52.4c-3.3,0.7-22.5,4.8-38.2-8.2
		C141.81,393.78,136.21,376.78,139.51,359.88z"/>
	<g>
		<g>
			<path class="st16" d="M217.01,350.38c-9.6,10-21,8.2-28,2.1c-7.3-6.3-10.5-18-2.5-27.8c9.6-10,21-8.3,28-2.1
				C221.71,328.88,224.91,340.48,217.01,350.38L217.01,350.38z"/>
			<path class="st0" d="M207.51,342.08c-0.1,0.1-0.2,0.3-0.3,0.4c-1.3,1.3-3.1,1.5-4.3,0.5c-0.8-0.4-1.7-0.2-2.1,0.5
				c-0.4,0.6-0.3,1.3,0.2,1.8c2,1.6,4.9,1.6,7.3-0.2l1,0.8c0.7,0.5,1.7,0.2,2.2-0.5c0.4-0.6,0.3-1.3-0.2-1.9l-1-0.8
				c1.7-2.9,1.1-6.3-1.3-7.9c-2.4-1.6-5.9-0.9-8.1,1.7c-1.3,1.5-3.3,1.8-4.5,0.7c-1.2-1.1-1.3-3.1,0-4.6s3.3-1.8,4.5-0.7
				c0.8,0.4,1.7,0.2,2.1-0.5c0.4-0.6,0.3-1.3-0.2-1.8c-2-1.7-5.3-1.5-7.6,0.5l-0.9-0.8c-0.7-0.5-1.7-0.2-2.2,0.5
				c-0.4,0.6-0.3,1.3,0.2,1.9l1,0.8c-1.5,3-0.8,6.2,1.6,7.7s5.9,0.7,8-1.8c1.3-1.5,3.2-1.8,4.5-0.7
				C208.61,338.48,208.61,340.48,207.51,342.08z"/>
		</g>
	</g>
	<path class="st17" d="M139.61,427.38v-66.9l46.9,13.4v69.7L139.61,427.38z"/>
	<path class="st17" d="M186.51,443.68v-69.7l46.9-13.4v66.8L186.51,443.68z"/>
	<g>
		<g>
			
				<ellipse transform="matrix(0.7325 -0.6807 0.6807 0.7325 -192.2765 234.1128)" class="st18" cx="201.78" cy="361.74" rx="14.7" ry="14.7"/>
			<g>
				
					<linearGradient id="SVGID_1_" gradientUnits="userSpaceOnUse" x1="-589.9241" y1="-3642.3997" x2="-576.0817" y2="-3629.8865" gradientTransform="matrix(0.6807 0.7325 -0.7325 0.6807 -2070.5305 3262.738)">
					<stop  offset="0" style="stop-color:#FFFFFF"/>
					<stop  offset="1" style="stop-color:#F2F3F5"/>
				</linearGradient>
				<path class="st19" d="M193.11,362.78l-2-2.1c-0.4-0.4-0.4-1.1,0-1.5l7.1-5.3c0.4-0.4,1.1-0.4,1.5,0.1l1.3,1.4
					c0.4,0.4,0.4,1.1,0,1.5l-6.5,6C194.21,363.28,193.51,363.28,193.11,362.78z"/>
				<path class="st20" d="M208.21,366.68l-0.4-0.4c0.3,0.3,0.8,0.4,1.1,0l0.7-0.7c0.3-0.3,0.4-0.8,0-1.1l-1.3-1.4l-1.3-1.4l-1.1-1.2
					l0.6-0.2c0.2-0.1,1.4-0.4,1.7-0.6c0.1-0.1,0.2-0.1,0.2-0.2l1.4-1.3c0.6-0.5,0.6-1.4,0.1-2l-0.1-0.1c-0.5-0.6-1.4-0.6-2-0.1h-0.1
					c-0.8,0.7-1.9,1.2-2.9,1.1l-1.9-0.1c-0.1,0-0.3,0-0.4,0c-0.3-0.1-0.5,0-0.7,0.2l-6.1,5.7c-0.3,0.3-0.4,0.8,0,1.1l3,3.2l2.3,2.5
					l0.4,0.4c0.3,0.3,0.8,0.4,1.1,0l0.7-0.7c0.2-0.1,0.2-0.3,0.3-0.4l0.6,0.7c0.3,0.3,0.8,0.4,1.1,0l0.7-0.7c0.3-0.3,0.4-0.8,0-1.1
					l0.4,0.4c0.3,0.3,0.8,0.4,1.1,0l0.7-0.7C208.41,367.48,208.51,366.98,208.21,366.68z"/>
			</g>
		</g>
	</g>
	<path class="st17" d="M196.91,396.18l48.3-16.3l-11.7-20l-46.9,13.5L196.91,396.18z"/>
	<g>
		<g>
			<path class="st21" d="M174.61,342.08c0,0-2-1.6-3.5-1.7c-2-0.2-3.1,0.9-3.7,1.3c-4,3.1-9.6,8.3-9.6,8.3l0,0c0,0-5.6,5.1-9.2,8.8
				c-0.5,0.5-1.6,1.6-1.7,3.6c-0.1,1.6,1.4,3.6,1.4,3.6s1.7,2.4,3.7,4.6l1.8,2.1c2,2.2,4.2,4.1,4.2,4.1s2,1.6,3.5,1.7
				c2,0.2,3.3-1.1,4-1.6c2.3-1.7,9.4-8,9.4-8s5.6-5.1,9.2-8.8c0.5-0.5,1.6-1.6,1.7-3.6c0.1-1.6-1.4-3.6-1.4-3.6s-1.7-2.4-3.7-4.6
				l-1.8-2.1C176.91,344.08,174.61,342.08,174.61,342.08"/>
			<polygon class="st22" points="166.71,365.38 170.51,354.98 159.81,357.78 			"/>
		</g>
	</g>
	<path class="st17" d="M186.51,373.38l-46.9-13.5l-11.7,20l48.2,16.3L186.51,373.38z"/>
	<g>
		<path class="st17" d="M167.61,313.58c-1.6-3.5-5.7-5.1-9.3-3.5l-29.4,13.2c-3.5,1.6-5.1,5.7-3.5,9.3l7.3,16.2
			c1.6,3.5,5.7,5.1,9.3,3.5l28-12.6l12.2,5L167.61,313.58z"/>
		<line class="st23" x1="131.71" y1="333.48" x2="164.61" y2="318.58"/>
		<line class="st23" x1="134.01" y1="338.48" x2="163.31" y2="325.18"/>
		<line class="st23" x1="136.31" y1="343.58" x2="165.71" y2="330.38"/>
	</g>
</g>
<g>
	<path class="st3" d="M669.11,196.2h-204c-11.7,0-21.2-9.5-21.2-21.2V28.9c0-11.7,9.5-21.2,21.2-21.2h204c11.7,0,21.2,9.5,21.2,21.2
		V175C690.31,186.7,680.81,196.2,669.11,196.2z"/>
	<g>
		<rect x="503.31" y="138.2" class="st24" width="21.1" height="35.1"/>
		<rect x="534.61" y="122.1" class="st25" width="21.1" height="51.6"/>
		<rect x="567.61" y="106.4" class="st26" width="21.1" height="67.2"/>
		<rect x="598.51" y="84.6" class="st27" width="21.1" height="89.1"/>
		<polygon class="st28" points="612.71,48.1 623.11,49.6 615.61,56.9 617.41,67.2 608.11,62.3 598.91,67.2 600.61,56.9 593.11,49.6 
			603.51,48.1 608.11,38.7 		"/>
		<g>
			<g>
				<path class="st29" d="M607.81,30.8v-8.7"/>
				<line class="st29" x1="617.91" y1="33.9" x2="621.31" y2="26.6"/>
				<line class="st29" x1="626.31" y1="41.3" x2="632.51" y2="37.2"/>
				<path class="st29" d="M629.11,51.7l9-1.2"/>
			</g>
			<g>
				<line class="st29" x1="597.41" y1="33.8" x2="594.11" y2="26.8"/>
				<line class="st29" x1="589.81" y1="41.9" x2="583.01" y2="37.5"/>
				<path class="st29" d="M577.61,50.7l9.3,1.3"/>
			</g>
		</g>
		<g>
			<g>
				<path class="st29" d="M493.11,155.3c0,0,89.3-10.6,117.3-56"/>
				<g>
					<polygon class="st14" points="613.51,109.3 611.51,109.6 609.91,99.9 600.31,102.2 599.81,100.3 611.51,97.5 					"/>
				</g>
			</g>
		</g>
	</g>
</g>
<g>
	<path class="st3" d="M669.61,473.28h-204c-11.7,0-21.2-9.5-21.2-21.2v-146.1c0-11.7,9.5-21.2,21.2-21.2h204
		c11.7,0,21.2,9.5,21.2,21.2v146.1C690.81,463.78,681.31,473.28,669.61,473.28z"/>
	<g>
		<polyline class="st11" points="493.21,394.38 510.91,403.48 542.81,374.58 581.71,401.18 613.21,367.68 648.71,400.48 
			665.31,388.78 		"/>
		<polyline class="st30" points="575.51,433.28 575.51,368.68 645.51,368.68 645.51,433.28 		"/>
		<path class="st31" d="M554.31,425.28c-9-12.6-10.9-15.1-19.5-25.9v-49h-0.4h-20.9h-0.4v49c-8.6,10.8-10.6,13.3-19.5,25.9
			c-11.4,16,1.8,15.4,30.3,15.6C552.51,441.08,565.71,441.18,554.31,425.28z"/>
		<path class="st30" d="M513.51,368.78h3.5"/>
		<path class="st30" d="M513.51,375.98h3.5"/>
		<path class="st30" d="M513.51,383.18h3.5"/>
		<path class="st30" d="M513.51,390.28h3.5"/>
		<path class="st30" d="M513.51,397.58h3.5"/>
		<path class="st27" d="M554.31,425.48c-5.4-7.5-8.1-11.4-11.5-15.6h-37.9c-3.2,4.2-6.1,8.1-11.5,15.6c-11.4,16,1.8,15.4,30.3,15.6
			C552.51,441.28,565.71,441.38,554.31,425.48z"/>
		<g>
			<path class="st31" d="M594.21,424.28h-2.6c-4,0-7.3-3.2-7.3-7.3v-57.9h17.2v57.9C601.51,420.88,598.21,424.28,594.21,424.28z"/>
			<path class="st32" d="M594.21,424.08h-2.6c-4,0-7.3-3.2-7.3-7.3v-42.2h17.2v42.3C601.51,420.88,598.21,424.08,594.21,424.08z"/>
			<path class="st30" d="M584.71,365.68h3.1"/>
			<path class="st30" d="M584.71,372.18h3.1"/>
			<path class="st30" d="M584.71,378.58h3.1"/>
			<path class="st30" d="M584.71,385.08h3.1"/>
			<path class="st30" d="M584.71,391.58h3.1"/>
		</g>
		<g>
			<path class="st31" d="M622.91,424.28h-2.6c-4,0-7.3-3.2-7.3-7.3v-57.9h17.2v57.9C630.21,420.88,626.91,424.28,622.91,424.28z"/>
			<path class="st32" d="M622.91,424.08h-2.6c-4,0-7.3-3.2-7.3-7.3v-28.6h17.2v28.6C630.21,420.88,626.91,424.08,622.91,424.08z"/>
			<path class="st30" d="M613.51,365.68h3.1"/>
			<path class="st30" d="M613.51,372.18h3.1"/>
			<path class="st30" d="M613.51,378.58h3.1"/>
			<path class="st30" d="M613.51,385.08h3.1"/>
			<path class="st30" d="M613.51,391.58h3.1"/>
		</g>
		<g>
			<text transform="matrix(1 0 0 1 501.8133 430.6451)" class="st0 st1 st33">0</text>
		</g>
		<g>
			<text transform="matrix(1 0 0 1 530.5594 431.6714)" class="st0 st1 st33">0</text>
		</g>
		<g>
			<text transform="matrix(0.9597 0.2809 -0.2809 0.9597 512.338 436.5188)" class="st0 st1 st34">0</text>
		</g>
		<g>
			<text transform="matrix(0.9167 -0.3996 0.3996 0.9167 517.8387 426.8808)" class="st0 st1 st35">1</text>
		</g>
		<g>
			<text transform="matrix(0.9605 0.2782 -0.2782 0.9605 539.6521 434.4817)" class="st0 st1 st36">1</text>
		</g>
	</g>
	
		<ellipse transform="matrix(0.0333 -0.9994 0.9994 0.0333 157.4391 834.8224)" class="st37" cx="510.26" cy="336.03" rx="6.2" ry="6.2"/>
	
		<ellipse transform="matrix(0.0333 -0.9994 0.9994 0.0333 190.2245 837.8435)" class="st38" cx="528.22" cy="320.59" rx="4.6" ry="4.6"/>
</g>
<g>
	<g>
		<path class="st13" d="M690.81,92.3h48.34c5.24,0,9.48,4.25,9.48,9.48v280.41c0,5.24-4.25,9.48-9.48,9.48h-46.82"/>
		<g>
			<polygon class="st14" points="696.96,385.95 697.92,386.98 692.86,391.68 697.92,396.38 696.96,397.4 690.81,391.68 			"/>
		</g>
	</g>
</g>
<g>
	<g>
		<path class="st13" d="M692.32,111.7h29.34c5.24,0,9.48,4.25,9.48,9.48v239.67c0,5.24-4.25,9.48-9.48,9.48h-30.86"/>
		<g>
			<polygon class="st14" points="696.96,117.43 697.92,116.4 692.86,111.7 697.92,107 696.96,105.98 690.81,111.7 			"/>
		</g>
	</g>
</g>
</svg>
