<?xml version="1.0" encoding="UTF-8"?>
<svg id="Layer_2" data-name="Layer 2" xmlns="http://www.w3.org/2000/svg" viewBox="0 0 1003.0645 84.253">
  <defs>
    <style>
      .cls-1, .cls-2 {
        fill: none;
      }

      .cls-2 {
        stroke: #273851;
        stroke-linecap: round;
        stroke-linejoin: round;
      }

      .cls-3 {
        fill: #fff;
        stroke: #263852;
        stroke-miterlimit: 10;
      }

      .cls-3, .cls-4 {
        isolation: isolate;
      }

      .cls-5 {
        fill: #263852;
      }

      .cls-6 {
        fill: #273851;
      }

      .cls-4 {
        fill: #a6dfe6;
      }
    </style>
  </defs>
  <g id="Layer_1-2" data-name="Layer 1">
    <g>
      <g>
        <g>
          <rect class="cls-3" x="7.74" y="10.4565" width="163.5555" height="63.3401" rx="4.0728" ry="4.0728"/>
          <rect class="cls-4" x="14.4881" y="17.4411" width="150.0592" height="49.3708" rx="4.0728" ry="4.0728"/>
          <g>
            <path class="cls-5" d="M70.9478,41.6545c0-3.8442,2.2592-6.1943,5.3018-6.1943,1.4575,0,2.5872,.6924,3.2976,1.4756l-.838,.9473c-.6377-.6558-1.4211-1.0747-2.4414-1.0747-2.2408,0-3.7349,1.8403-3.7349,4.8101,0,3.0059,1.4211,4.8828,3.6803,4.8828,1.1477,0,2.004-.4561,2.7693-1.2939l.838,.9111c-.9656,1.1113-2.1316,1.7305-3.662,1.7305-2.9879,0-5.2107-2.2954-5.2107-6.1943Z"/>
            <path class="cls-5" d="M81.9009,34.6584h1.5122v3.5347l-.0547,1.8218c.8199-.8018,1.7126-1.4575,2.9333-1.4575,1.8765,0,2.7146,1.2026,2.7146,3.4614v5.6118h-1.5122v-5.4111c0-1.6577-.5101-2.3501-1.6761-2.3501-.8927,0-1.5304,.4551-2.4049,1.3481v6.4131h-1.5122v-12.9722Z"/>
            <path class="cls-5" d="M91.5784,35.9704c0-.583,.4191-.9839,1.0021-.9839s1.0021,.4009,1.0021,.9839c0,.6011-.4191,.9839-1.0021,.9839s-1.0021-.3828-1.0021-.9839Zm.2368,2.8057h1.5122v8.8545h-1.5122v-8.8545Z"/>
            <path class="cls-5" d="M96.3167,45.8449v-11.1865h1.5122v11.2959c0,.4736,.2004,.6377,.4373,.6377,.0911,0,.1639,0,.3097-.0366l.2004,1.1299c-.2186,.1089-.4919,.1636-.8745,.1636-1.1295,0-1.5851-.7285-1.5851-2.0039Z"/>
            <path class="cls-5" d="M100.3264,43.2214c0-2.8784,1.8219-4.6641,3.8441-4.6641,1.0203,0,1.6945,.3828,2.4778,1.02l-.0729-1.5117v-3.4072h1.5122v12.9722h-1.2389l-.1276-1.0386h-.0546c-.6924,.6738-1.6398,1.2568-2.6782,1.2568-2.2228,0-3.662-1.6758-3.662-4.6274Zm6.249,2.1499v-4.6279c-.7469-.6738-1.421-.9106-2.1498-.9106-1.4028,0-2.5325,1.3481-2.5325,3.3706,0,2.1133,.8745,3.3701,2.4231,3.3701,.8199,0,1.5304-.4004,2.2592-1.2021Z"/>
          </g>
        </g>
        <g>
          <rect class="cls-3" x="625.4018" y="10.4565" width="163.5555" height="63.3401" rx="4.0728" ry="4.0728"/>
          <rect class="cls-4" x="632.1499" y="17.4411" width="150.0592" height="49.3708" rx="4.0728" ry="4.0728"/>
          <g>
            <path class="cls-5" d="M690.0491,35.6791h3.5527c2.4231,0,4.1174,.8198,4.1174,2.915,0,1.1841-.6376,2.2407-1.749,2.6055v.0728c1.4211,.2729,2.4232,1.2202,2.4232,2.8604,0,2.3501-1.8583,3.498-4.5183,3.498h-3.826v-11.9517Zm3.2976,5.083c2.0223,0,2.8604-.7471,2.8604-1.9678,0-1.3848-.9474-1.8945-2.8057-1.8945h-1.8219v3.8623h1.7672Zm.3098,5.6479c2.0405,0,3.2248-.729,3.2248-2.332,0-1.4761-1.1478-2.1499-3.2248-2.1499h-2.077v4.4819h2.077Z"/>
            <path class="cls-5" d="M700.0731,45.3354c0-1.9678,1.6397-2.915,5.4293-3.3345-.0182-1.1113-.3826-2.186-1.8219-2.186-1.0203,0-1.9495,.4551-2.6417,.9106l-.583-1.02c.8198-.5469,2.0587-1.1479,3.4798-1.1479,2.1498,0,3.079,1.4395,3.079,3.6255v5.4478h-1.2389l-.1458-1.0571h-.0547c-.8381,.7109-1.8037,1.2754-2.915,1.2754-1.4757,0-2.5871-.9106-2.5871-2.5137Zm5.4293,.1455v-2.4053c-2.9879,.3467-3.9535,1.0205-3.9535,2.1685,0,.9839,.6741,1.3662,1.5304,1.3662s1.5668-.3823,2.4231-1.1294Z"/>
            <path class="cls-5" d="M708.8213,46.5736l.6923-.874c.7652,.6377,1.5668,.9653,2.66,.9653,1.166,0,1.7308-.6011,1.7308-1.3662,0-.9111-.9838-1.2935-1.9858-1.6582-1.33-.4736-2.6053-1.1113-2.6053-2.5688,0-1.4209,1.1296-2.5142,3.0608-2.5142,1.1114,0,2.0588,.4189,2.7511,1.002l-.6923,.8745c-.6194-.4551-1.2571-.7104-2.0405-.7104-1.1296,0-1.6215,.6196-1.6215,1.2754,0,.8018,.7653,1.1294,1.8766,1.5122,1.3846,.4922,2.7146,1.0933,2.7146,2.6963,0,1.4395-1.1478,2.6416-3.2429,2.6416-1.2936,0-2.4778-.4736-3.2977-1.2754Z"/>
            <path class="cls-5" d="M716.7854,43.2035c0-2.8789,1.9494-4.646,3.9717-4.646,2.2592,0,3.5527,1.603,3.5527,4.1538,0,.3281-.0182,.6016-.0729,.8931h-5.9576c.1276,1.8218,1.2389,3.0239,2.915,3.0239,.8563,0,1.6033-.2363,2.2227-.6558l.5284,.9658c-.7653,.5464-1.7126,.9106-2.9333,.9106-2.3685,0-4.2268-1.7124-4.2268-4.6455Zm6.1762-.7651c0-1.749-.8198-2.6782-2.168-2.6782-1.2389,0-2.332,.9834-2.5142,2.6782h4.6823Z"/>
          </g>
        </g>
        <g>
          <rect class="cls-3" x="419.5145" y="10.4565" width="163.5555" height="63.3401" rx="4.0728" ry="4.0728"/>
          <rect class="cls-4" x="426.2626" y="17.4411" width="150.0592" height="49.3708" rx="4.0728" ry="4.0728"/>
          <g>
            <path class="cls-5" d="M482.1296,35.6787h3.7349c2.4413,0,4.1903,.8745,4.1903,3.3706,0,1.8584-1.0566,2.9517-2.6781,3.3706l3.0425,5.2104h-1.7307l-2.8787-5.0464h-2.1498v5.0464h-1.5304v-11.9517Zm3.5162,5.666c1.8583,0,2.8785-.7651,2.8785-2.2954,0-1.5669-1.0203-2.1313-2.8785-2.1313h-1.9858v4.4268h1.9858Z"/>
            <path class="cls-5" d="M492.1351,35.9702c0-.583,.4191-.9839,1.0021-.9839s1.0021,.4009,1.0021,.9839c0,.6011-.4191,.9839-1.0021,.9839s-1.0021-.3828-1.0021-.9839Zm.2369,2.8062h1.5121v8.854h-1.5121v-8.854Z"/>
            <path class="cls-5" d="M496.1993,49.3247c0-.7466,.4919-1.4575,1.2936-2.0039v-.0728c-.4373-.2734-.7834-.7471-.7834-1.4395,0-.7471,.5101-1.3301,.9657-1.6396v-.0732c-.583-.4736-1.1478-1.3296-1.1478-2.3862,0-1.9312,1.5304-3.1519,3.3341-3.1519,.4918,0,.9291,.0908,1.2571,.2188h3.079v1.166h-1.8037c.4191,.4004,.7106,1.0566,.7106,1.8032,0,1.895-1.4393,3.0791-3.2429,3.0791-.4373,0-.911-.1094-1.3118-.3096-.328,.2729-.5648,.5649-.5648,1.0566,0,.5464,.3644,.9473,1.5486,.9473h1.7126c2.0587,0,3.0972,.6558,3.0972,2.1138,0,1.6577-1.7308,3.0786-4.4818,3.0786-2.1681,0-3.6621-.856-3.6621-2.3867Zm6.6682-.4556c0-.8193-.6195-1.0928-1.7855-1.0928h-1.5121c-.3462,0-.7653-.0366-1.1478-.146-.6377,.4556-.911,.9839-.911,1.4941,0,.9473,.9657,1.5303,2.569,1.5303,1.6761,0,2.7875-.8745,2.7875-1.7856Zm-1.1296-7.1597c0-1.2754-.838-2.0591-1.8765-2.0591s-1.8766,.7656-1.8766,2.0591,.8563,2.0952,1.8766,2.0952,1.8765-.8018,1.8765-2.0952Z"/>
            <path class="cls-5" d="M506.077,34.6587h1.5121v3.5347l-.0546,1.8213c.8198-.8013,1.7125-1.457,2.9332-1.457,1.8766,0,2.7146,1.2021,2.7146,3.4614v5.6113h-1.5122v-5.4106c0-1.6582-.5101-2.3506-1.6761-2.3506-.8927,0-1.5304,.4556-2.4049,1.3481v6.4131h-1.5121v-12.9717Z"/>
            <path class="cls-5" d="M516.2463,44.8794v-4.8828h-1.3118v-1.1294l1.3846-.0908,.1823-2.8428h1.2571v2.8428h2.4049v1.2202h-2.4049v4.9194c0,1.0747,.3644,1.6943,1.3665,1.6943,.3279,0,.6559-.0547,1.0203-.2188l.3097,1.0752c-.4738,.2183-1.075,.3823-1.6761,.3823-1.8948,0-2.5325-1.2026-2.5325-2.9697Z"/>
          </g>
        </g>
        <g>
          <rect class="cls-3" x="213.6272" y="10.4565" width="163.5555" height="63.3401" rx="4.0728" ry="4.0728"/>
          <rect class="cls-4" x="220.3753" y="17.4411" width="150.0592" height="49.3708" rx="4.0728" ry="4.0728"/>
          <g>
            <path class="cls-5" d="M282.084,35.6788h1.5304v10.6577h5.2106v1.2939h-6.741v-11.9517Z"/>
            <path class="cls-5" d="M289.9211,43.2032c0-2.8784,1.9495-4.646,3.9718-4.646,2.2592,0,3.5527,1.6035,3.5527,4.1543,0,.3276-.0183,.6011-.0729,.8926h-5.9576c.1276,1.8218,1.2389,3.0244,2.915,3.0244,.8563,0,1.6033-.2373,2.2227-.6562l.5284,.9658c-.7653,.5464-1.7126,.9111-2.9333,.9111-2.3684,0-4.2268-1.7129-4.2268-4.646Zm6.1763-.7651c0-1.749-.8198-2.6782-2.1681-2.6782-1.2389,0-2.332,.9839-2.5142,2.6782h4.6823Z"/>
            <path class="cls-5" d="M299.8714,39.9967h-1.2024v-1.1299l1.2024-.0908v-1.3848c0-1.8037,.8199-2.9512,2.5872-2.9512,.5465,0,1.075,.1274,1.4757,.291l-.3097,1.166c-.3462-.1636-.6924-.2363-1.0021-.2363-.838,0-1.2389,.583-1.2389,1.7305v1.3848h3.2247l.1823-2.4775h1.2753v2.4775h2.3867v1.2207h-2.3867v4.9189c0,1.0752,.3462,1.6943,1.3665,1.6943,.3097,0,.7106-.1094,1.0021-.2368l.2915,1.1479c-.4919,.1641-1.0931,.3281-1.6398,.3281-1.8948,0-2.5323-1.2026-2.5323-2.9697v-4.8828h-3.1702v7.6338h-1.5122v-7.6338Z"/>
          </g>
        </g>
        <g>
          <rect class="cls-3" x="831.7691" y="10.4564" width="163.5555" height="63.3401" rx="4.0728" ry="4.0728"/>
          <rect class="cls-4" x="838.5172" y="17.4411" width="150.0592" height="49.3708" rx="4.0728" ry="4.0728"/>
          <g>
            <path class="cls-5" d="M889.1082,40.6052c0-3.8262,2.0952-6.1401,5.1013-6.1401s5.1196,2.332,5.1196,6.1401c0,3.8442-2.1135,6.249-5.1196,6.249s-5.1013-2.4048-5.1013-6.249Zm8.6357,0c0-2.9697-1.4028-4.7915-3.5344-4.7915s-3.5164,1.8218-3.5164,4.7915c0,2.9878,1.3848,4.9009,3.5164,4.9009s3.5344-1.9131,3.5344-4.9009Z"/>
            <path class="cls-5" d="M903.159,45.7249h-.0547l-.1458,.9106h-1.2025v-12.9717h1.5121v3.5347l-.0546,1.585c.8199-.6924,1.8036-1.2207,2.7875-1.2207,2.2773,0,3.5164,1.7671,3.5164,4.5,0,3.0244-1.822,4.7915-3.8442,4.7915-.8198,0-1.7308-.4189-2.5142-1.1294Zm4.7915-3.644c0-1.9492-.6741-3.2427-2.332-3.2427-.7471,0-1.5122,.4004-2.3503,1.2021v4.6279c.7654,.6738,1.5669,.9106,2.1499,.9106,1.4575,0,2.5325-1.312,2.5325-3.498Z"/>
            <path class="cls-5" d="M909.6297,50.3342l.3098-1.1299c.2185,.0732,.5466,.146,.8381,.146,.8745,0,1.093-.6558,1.093-1.731v-9.8379h1.5122v9.8379c0,1.8223-.6741,2.9697-2.4414,2.9697-.5283,0-1.002-.1094-1.3118-.2549Zm1.9678-15.3589c0-.583,.4189-.9839,1.002-.9839s1.0021,.4009,1.0021,.9839c0,.6011-.4191,.9839-1.0021,.9839s-1.002-.3828-1.002-.9839Z"/>
            <path class="cls-5" d="M915.698,42.2083c0-2.8784,1.9495-4.6455,3.9717-4.6455,2.2593,0,3.5527,1.603,3.5527,4.1538,0,.3276-.0182,.6011-.0728,.8926h-5.9578c.1277,1.8218,1.239,3.0244,2.915,3.0244,.8564,0,1.6033-.2368,2.2228-.6558l.5284,.9658c-.7654,.5464-1.7126,.9106-2.9333,.9106-2.3684,0-4.2268-1.7124-4.2268-4.646Zm6.1763-.7651c0-1.749-.8198-2.6782-2.1681-2.6782-1.2389,0-2.332,.9839-2.5143,2.6782h4.6824Z"/>
            <path class="cls-5" d="M924.7375,42.2268c0-2.9697,1.986-4.6641,4.2633-4.6641,1.166,0,1.9675,.4551,2.587,1.0381l-.7469,.9478c-.4919-.4556-1.0566-.729-1.7673-.729-1.6033,0-2.7693,1.3662-2.7693,3.4072,0,2.022,1.0933,3.3701,2.7146,3.3701,.8199,0,1.5487-.3643,2.0771-.8379l.6558,.9658c-.8015,.7285-1.8037,1.1294-2.8604,1.1294-2.3503,0-4.1539-1.6943-4.1539-4.6274Z"/>
            <path class="cls-5" d="M933.7769,43.8845v-4.8828h-1.3118v-1.1294l1.3845-.0908,.1823-2.8428h1.2572v2.8428h2.4048v1.2202h-2.4048v4.9194c0,1.0747,.3643,1.6943,1.3663,1.6943,.328,0,.6559-.0547,1.0203-.2188l.3097,1.0752c-.4736,.2183-1.075,.3823-1.676,.3823-1.8948,0-2.5325-1.2026-2.5325-2.9697Z"/>
          </g>
        </g>
        <g>
          <line class="cls-2" x1="208.4117" y1="42.1265" x2="171.4069" y2="42.1265"/>
          <path class="cls-6" d="M206.3206,45.8651l6.2739-3.5897c.1151-.0659,.1151-.2319,0-.2978l-6.2739-3.5897c-.1144-.0654-.2568,.0171-.2568,.1489v7.1794c0,.1318,.1424,.2143,.2568,.1489Z"/>
        </g>
        <g>
          <line class="cls-2" x1="414.2201" y1="42.1265" x2="377.1827" y2="42.1265"/>
          <path class="cls-6" d="M412.129,45.8651l6.2739-3.5897c.1151-.0659,.1151-.2319,0-.2978l-6.2739-3.5897c-.1144-.0654-.2568,.0171-.2568,.1489v7.1794c0,.1318,.1424,.2143,.2568,.1489Z"/>
        </g>
        <g>
          <line class="cls-2" x1="620.0649" y1="42.1265" x2="583.2594" y2="42.1265"/>
          <path class="cls-6" d="M617.9738,45.8651l6.2739-3.5897c.1151-.0659,.1151-.2319,0-.2978l-6.2739-3.5897c-.1144-.0654-.2568,.0171-.2568,.1489v7.1794c0,.1318,.1424,.2143,.2568,.1489Z"/>
        </g>
        <g>
          <line class="cls-2" x1="825.9038" y1="42.1265" x2="788.9572" y2="42.1265"/>
          <path class="cls-6" d="M823.8127,45.8651l6.2739-3.5897c.1151-.0659,.1151-.2319,0-.2978l-6.2739-3.5897c-.1144-.0654-.2568,.0171-.2568,.1489v7.1794c0,.1318,.1424,.2143,.2568,.1489Z"/>
        </g>
      </g>
      <rect class="cls-1" width="1003.0645" height="84.253"/>
    </g>
  </g>
</svg>