<?xml version="1.0" encoding="utf-8"?>
<!-- Generator: Adobe Illustrator 26.5.0, SVG Export Plug-In . SVG Version: 6.00 Build 0)  -->
<svg version="1.1" id="Layer_1" xmlns="http://www.w3.org/2000/svg" xmlns:xlink="http://www.w3.org/1999/xlink" x="0px" y="0px"
	 viewBox="0 0 1342.1 369.5" style="enable-background:new 0 0 1342.1 369.5;" xml:space="preserve">
<style type="text/css">
	.st0{enable-background:new    ;}
	.st1{fill:#263953;}
	.st2{fill:none;stroke:#263A53;stroke-width:3;stroke-linecap:round;stroke-linejoin:round;}
	.st3{fill:#263A53;}
	.st4{fill:#CEDB56;stroke:#263953;stroke-width:2;stroke-miterlimit:10;}
	.st5{fill:#76CDD8;stroke:#263A53;stroke-width:2;}
	
		.st6{fill-rule:evenodd;clip-rule:evenodd;fill:#76CDD8;stroke:#263A53;stroke-width:2;stroke-linecap:round;stroke-linejoin:round;}
	.st7{fill-rule:evenodd;clip-rule:evenodd;fill:#CEDB56;}
	.st8{fill:#FFFFFF;stroke:#263A53;stroke-width:2;}
	.st9{fill:none;stroke:#263A53;stroke-width:2;stroke-linecap:round;stroke-linejoin:round;}
	.st10{fill:#CCCCCC;stroke:#263953;stroke-width:2;stroke-miterlimit:10;}
	.st11{fill:#DF674F;stroke:#1E3650;stroke-width:2;stroke-miterlimit:10;}
	.st12{fill-rule:evenodd;clip-rule:evenodd;fill:#FFFFFF;stroke:#263953;stroke-width:2;stroke-miterlimit:10;}
	.st13{fill:#FFFFFF;stroke:#1E3751;stroke-width:2;}
	.st14{fill:#CCCCCB;stroke:#1E3751;stroke-width:2;}
	.st15{fill:none;stroke:#1E3650;stroke-width:2;stroke-linecap:round;stroke-linejoin:round;}
	.st16{fill:#3CC3D8;stroke:#263A53;stroke-width:2;stroke-linecap:round;stroke-linejoin:round;}
	.st17{fill:#CEDB56;stroke:#263A53;stroke-width:2;stroke-linecap:round;stroke-linejoin:round;}
	.st18{fill:#FFFFFF;stroke:#263953;stroke-width:2;}
	.st19{fill:#CEDB56;stroke:#263A53;stroke-width:2;stroke-linecap:round;stroke-linejoin:round;stroke-miterlimit:4;}
	.st20{fill:#64C9D5;stroke:#263953;stroke-width:2;}
	.st21{fill:#CEDB56;stroke:#263953;stroke-width:2;stroke-linecap:round;stroke-linejoin:round;}
	.st22{fill:#FFFFFF;stroke:#263A53;stroke-width:2;stroke-linecap:round;stroke-linejoin:round;}
	.st23{fill-rule:evenodd;clip-rule:evenodd;fill:#D35D47;stroke:#263953;stroke-width:2;stroke-miterlimit:10;}
	
		.st24{fill-rule:evenodd;clip-rule:evenodd;fill:#CEDB56;stroke:#263A53;stroke-width:2;stroke-linecap:round;stroke-linejoin:round;}
	.st25{fill:none;stroke:#76CDD8;stroke-width:2;stroke-linecap:round;stroke-linejoin:round;}
	.st26{fill:none;stroke:#CEDB56;stroke-width:2;stroke-linecap:round;stroke-linejoin:round;}
	.st27{fill:none;stroke:#77CDD7;stroke-width:2;stroke-linecap:round;stroke-linejoin:round;}
	.st28{fill:none;stroke:#263953;stroke-width:2;stroke-linecap:round;stroke-dasharray:2,6.01;}
	.st29{fill:none;stroke:#1E3650;stroke-linecap:round;stroke-linejoin:round;}
</style>
<g class="st0">
	<path class="st1" d="M106.6,338.8l2.2,0.7c-0.3,1.2-0.9,2.2-1.7,2.8c-0.8,0.6-1.8,0.9-3,0.9c-1.5,0-2.8-0.5-3.8-1.6
		c-1-1-1.5-2.5-1.5-4.3c0-1.9,0.5-3.4,1.5-4.4s2.3-1.6,3.9-1.6c1.4,0,2.5,0.4,3.4,1.2c0.5,0.5,0.9,1.2,1.2,2.1l-2.3,0.5
		c-0.1-0.6-0.4-1.1-0.8-1.4s-1-0.5-1.6-0.5c-0.8,0-1.5,0.3-2.1,0.9c-0.5,0.6-0.8,1.6-0.8,3s0.3,2.5,0.8,3.1s1.2,0.9,2,0.9
		c0.6,0,1.1-0.2,1.6-0.6C106.1,340.3,106.4,339.7,106.6,338.8z"/>
	<path class="st1" d="M110.4,337.4c0-1.2,0.2-2.1,0.5-2.9c0.3-0.6,0.6-1.1,1.1-1.6s0.9-0.8,1.5-1c0.7-0.3,1.5-0.5,2.5-0.5
		c1.7,0,3,0.5,4.1,1.6c1,1,1.5,2.5,1.5,4.4c0,1.8-0.5,3.3-1.5,4.3s-2.3,1.6-4,1.6s-3.1-0.5-4.1-1.6
		C110.9,340.6,110.4,339.2,110.4,337.4z M112.8,337.3c0,1.3,0.3,2.3,0.9,2.9c0.6,0.7,1.4,1,2.3,1s1.7-0.3,2.3-1s0.9-1.7,0.9-3
		s-0.3-2.3-0.9-2.9s-1.3-1-2.3-1s-1.7,0.3-2.3,1S112.8,336,112.8,337.3z"/>
	<path class="st1" d="M123.4,343v-11.4h2.3v9.4h5.8v1.9h-8.1V343z"/>
	<path class="st1" d="M133.1,343v-11.4h2.3v9.4h5.8v1.9h-8.1V343z"/>
	<path class="st1" d="M142.9,343v-11.5h8.5v1.9h-6.2v2.5h5.8v1.9h-5.8v3.1h6.4v1.9h-8.7V343z"/>
	<path class="st1" d="M160.9,338.8l2.2,0.7c-0.3,1.2-0.9,2.2-1.7,2.8c-0.8,0.6-1.8,0.9-3,0.9c-1.5,0-2.8-0.5-3.8-1.6
		c-1-1-1.5-2.5-1.5-4.3c0-1.9,0.5-3.4,1.5-4.4s2.3-1.6,3.9-1.6c1.4,0,2.5,0.4,3.4,1.2c0.5,0.5,0.9,1.2,1.2,2.1l-2.3,0.5
		c-0.1-0.6-0.4-1.1-0.8-1.4s-1-0.5-1.6-0.5c-0.8,0-1.5,0.3-2.1,0.9c-0.5,0.6-0.8,1.6-0.8,3s0.3,2.5,0.8,3.1s1.2,0.9,2,0.9
		c0.6,0,1.1-0.2,1.6-0.6C160.3,340.3,160.7,339.7,160.9,338.8z"/>
	<path class="st1" d="M167.7,343v-9.5h-3.4v-1.9h9.1v1.9H170v9.5H167.7z"/>
	<path class="st1" d="M179.3,331.6h4.2c1,0,1.7,0.1,2.2,0.2c0.7,0.2,1.2,0.5,1.7,1.1c0.5,0.5,0.8,1.1,1.1,1.9s0.4,1.6,0.4,2.7
		c0,0.9-0.1,1.8-0.4,2.4c-0.3,0.8-0.7,1.5-1.2,2c-0.4,0.4-0.9,0.7-1.6,0.9c-0.5,0.2-1.2,0.2-2,0.2h-4.4V331.6z M181.6,333.5v7.6h1.7
		c0.6,0,1.1,0,1.4-0.1c0.4-0.1,0.7-0.3,0.9-0.5s0.4-0.6,0.6-1.1s0.2-1.2,0.2-2.1s-0.1-1.6-0.2-2s-0.4-0.8-0.7-1.1s-0.6-0.4-1.1-0.5
		c-0.3-0.1-1-0.1-1.9-0.1L181.6,333.5L181.6,333.5z"/>
	<path class="st1" d="M201.2,343h-2.5l-1-2.6h-4.6l-0.9,2.6h-2.5l4.5-11.5h2.4L201.2,343z M196.9,338.5l-1.6-4.2l-1.5,4.2H196.9z"/>
	<path class="st1" d="M203.8,343v-9.5h-3.4v-1.9h9.1v1.9h-3.4v9.5H203.8z"/>
	<path class="st1" d="M220.1,343h-2.5l-1-2.6H212l-0.9,2.6h-2.5l4.5-11.5h2.4L220.1,343z M215.9,338.5l-1.6-4.2l-1.5,4.2H215.9z"/>
</g>
<g>
	<g>
		<polyline class="st2" points="180.3,199.3 170.5,203.5 160.8,207.6 162.1,197.1 163.1,189 		"/>
		<polyline class="st2" points="203.7,166.7 204.7,158.5 206,148.1 196.3,152.2 186.6,156.4 		"/>
		<line class="st2" x1="204.2" y1="172.6" x2="178.3" y2="162.9"/>
		<circle class="st3" cx="195.1" cy="178.5" r="2.2"/>
		<circle class="st3" cx="190.8" cy="184.3" r="2.2"/>
		<circle class="st3" cx="186.7" cy="190" r="2.2"/>
	</g>
	<path class="st4" d="M192.5,213.5h-71.1c-1.8,0-3.2-1.4-3.2-3.2v-7.2c0-1.8,1.4-3.2,3.2-3.2h71.1c1.8,0,3.2,1.4,3.2,3.2v7.2
		C195.7,212.1,194.2,213.5,192.5,213.5z"/>
	<path class="st5" d="M123.8,213.7v7.8c0,1.4,0.5,2.8,1.5,3.8l24.9,28.2v29.9h13.7v-29.9l24.7-28.2c0.9-1.1,1.4-2.4,1.4-3.8v-7.8
		H123.8z"/>
	<path class="st6" d="M196,100.3c-1.3-0.9-2.8-1.5-4.4-1.8l-0.6-2.8c-1.2-0.1-2.4-0.1-3.6,0l-0.6,2.8c-1.6,0.3-3,0.9-4.4,1.8
		l-2.4-1.5c-1,0.7-1.8,1.6-2.6,2.6l1.5,2.4c-0.9,1.3-1.5,2.8-1.8,4.4l-2.8,0.6c-0.1,0.6-0.1,1.2-0.1,1.8c0,0.6,0,1.2,0.1,1.8
		l2.8,0.6c0.3,1.6,0.9,3,1.8,4.4l-1.5,2.4c0.7,1,1.6,1.8,2.6,2.6l2.4-1.5c1.3,0.9,2.8,1.5,4.4,1.8l0.6,2.8c0.6,0.1,1.2,0.1,1.8,0.1
		s1.2,0,1.8-0.1l0.6-2.8c1.6-0.3,3-0.9,4.4-1.8l2.4,1.5c1-0.7,1.8-1.6,2.6-2.6l-1.5-2.4c0.9-1.3,1.5-2.8,1.8-4.4l2.8-0.6
		c0.1-0.6,0.1-1.2,0.1-1.8c0-0.6,0-1.2-0.1-1.8l-2.8-0.6c-0.3-1.6-0.9-3-1.8-4.4l1.5-2.4c-0.7-1-1.6-1.8-2.6-2.6L196,100.3z
		 M196.3,110.5c0,3.9-3.2,7.1-7.1,7.1s-7.1-3.2-7.1-7.1s3.2-7.1,7.1-7.1l0,0C193.1,103.4,196.3,106.6,196.3,110.5L196.3,110.5z"/>
	<path class="st7" d="M133.3,85.3c-0.7-0.5-1.5-0.8-2.3-1l-0.3-1.5c-0.6-0.1-1.3-0.1-1.9,0l-0.3,1.5c-0.8,0.2-1.6,0.5-2.3,1
		l-1.2-0.8c-0.5,0.4-1,0.8-1.4,1.3l0.8,1.3c-0.5,0.7-0.8,1.5-1,2.3l-1.5,0.3c0,0.3-0.1,0.6-0.1,1c0,0.3,0,0.6,0.1,1l1.5,0.3
		c0.2,0.8,0.5,1.6,0.9,2.3l-0.8,1.3c0.4,0.5,0.8,1,1.3,1.3l1.2-0.8c0.7,0.5,1.5,0.8,2.3,1l0.3,1.5c0.3,0,0.6,0.1,1,0.1
		c0.3,0,0.6,0,1-0.1l0.3-1.5c0.8-0.2,1.6-0.5,2.3-0.9l1.2,0.8c0.5-0.4,1-0.8,1.3-1.3l-0.8-1.2c0.5-0.7,0.8-1.5,1-2.3l1.5-0.3
		c0-0.3,0.1-0.6,0.1-1c0-0.3,0-0.6-0.1-1l-1.5-0.3c-0.2-0.8-0.5-1.6-0.9-2.3l0.8-1.2c-0.4-0.5-0.8-1-1.3-1.4L133.3,85.3z
		 M133.4,90.7c0,2.1-1.7,3.7-3.8,3.7s-3.7-1.7-3.7-3.8c0-2.1,1.7-3.7,3.8-3.7l0,0C131.8,87,133.4,88.7,133.4,90.7L133.4,90.7z"/>
	<g>
		<g>
			<path class="st8" d="M177,130.8l11.3,37.3c0.7,2.1-0.5,4.3-2.6,4.9l-56,16.9c-2.1,0.7-4.3-0.5-4.9-2.6L113.5,150
				c-0.7-2.1,0.5-4.3,2.6-4.9l56-16.9C174.2,127.6,176.4,128.8,177,130.8z"/>
		</g>
		<polyline class="st9" points="119.9,151.6 151.9,162.9 172.5,133.8 		"/>
		<line class="st9" x1="129.8" y1="183.5" x2="145.4" y2="161.2"/>
		<line class="st9" x1="155.9" y1="158" x2="182.9" y2="167.4"/>
	</g>
	<g>
		<path class="st10" d="M127.9,168.9l-2.6,3.4c-2.3,2.9-1.8,7,1.1,9.3l1.1,0.9c2.9,2.2,7.1,1.7,9.3-1.2l2.6-3.4
			c2.2-2.9,1.7-7-1.2-9.3l-1.1-0.9C134.3,165.5,130.1,166,127.9,168.9z M129.4,170.7c1.5-2,4.4-2.3,6.4-0.8l0.6,0.4l0,0
			c2,1.5,2.4,4.4,0.8,6.4l-2.1,2.7c-1.5,2-4.4,2.4-6.4,0.8l-0.6-0.4l0,0c-2-1.5-2.4-4.4-0.8-6.4L129.4,170.7z"/>
		<path class="st11" d="M137.5,185.8l-7.4,9.5c-1.6,2-4.5,2.4-6.6,0.8l-9.5-7.4c-2-1.6-2.4-4.5-0.8-6.6l7.4-9.5
			c1.6-2,4.5-2.4,6.6-0.8l9.5,7.4C138.8,180.8,139.1,183.8,137.5,185.8z"/>
		<path class="st12" d="M121.2,186.9c-0.5,0.7-0.4,1.8,0.3,2.3s1.8,0.4,2.3-0.3l1.8-2.4c1.1,0.3,2.3,0.2,3.3-0.4
			c2.1-1.2,2.8-3.8,1.6-5.9s-3.9-2.8-5.9-1.6c-2.1,1.2-2.8,3.9-1.6,5.9L121.2,186.9z"/>
	</g>
</g>
<g>
	<path class="st13" d="M567,119.3h-19.2h-57.3h-19.2c-2.3,0-4.3,2-4.3,4.3v19.2v104.3c0,2.3,2,4.3,4.3,4.3H567c2.3,0,4.3-2,4.3-4.3
		V142.8v-19.2C571.2,121.2,569.3,119.3,567,119.3z"/>
	<path class="st14" d="M554.4,129h-70.1v-12.2c0-3.8,3-6.8,6.8-6.8h56.6c3.8,0,6.8,3,6.8,6.8L554.4,129L554.4,129z"/>
	<line class="st15" x1="484" y1="152.9" x2="553.7" y2="153.1"/>
	<line class="st15" x1="484" y1="163" x2="553.7" y2="163.2"/>
	<line class="st15" x1="484" y1="173.1" x2="553.7" y2="173.3"/>
	<g>
		<path class="st11" d="M536.7,210.3c-0.7-13.2-11.6-23.8-25-23.8c-0.2,0-0.6,0-0.8,0v8.5c0.2,0,0.6,0,0.8,0
			c8.7,0,15.8,6.7,16.5,15.2h-2.3l6.3,7l6.4-7h-1.9V210.3z"/>
		<path class="st16" d="M517.3,191.4l-7.7-7.1v2.6c-12.6,1.1-22.7,11.7-22.9,24.6h8.5c0.2-8.2,6.4-15,14.4-16v3L517.3,191.4z"/>
		<path class="st17" d="M536.7,212.3l-4.6,5l-3.9-4.4c-0.2,6.2-3.9,10.2-9,13.5l0,0c-2.2,1.2-4.8,1.9-7.5,1.9
			c-8.9,0-16.3-7.1-16.5-16h3l-7-7.7l-7.1,7.7h2.6c0.2,13.6,11.4,24.5,25,24.5c5.4,0,10.3-1.8,14.4-4.6c0.1,0,0.1-0.1,0.2-0.1
			c0.1,0,0.1-0.1,0.2-0.1l0,0C532.5,227.4,536.4,220,536.7,212.3z"/>
	</g>
	<g>
		<path class="st18" d="M595.1,237.4c-4.3,7.2-6.9,11.5-6.9,11.5s-2.6-5.2-5.6-11.6l0.7-65.9l12.5,0.2L595.1,237.4z"/>
		
			<rect x="584.8" y="169.6" transform="matrix(1.460035e-02 -0.9999 0.9999 1.460035e-02 404.8773 762.6087)" class="st19" width="9.1" height="12.5"/>
	</g>
</g>
<g>
	<line class="st15" x1="829.1" y1="64.2" x2="950.8" y2="64.2"/>
	<circle class="st20" cx="829.4" cy="64.3" r="6.6"/>
	<line class="st15" x1="903.1" y1="38.8" x2="903" y2="69.3"/>
	<rect x="878.7" y="17.6" class="st21" width="49" height="20.9"/>
	<g>
		<path class="st22" d="M905,53.9l20.6,9.5c1,0.5,1,1.2,0,1.7L905,74.5c-1,0.5-2.6,0.5-3.6,0L880.8,65c-1-0.5-1-1.2,0-1.7l20.6-9.5
			C902.4,53.4,904,53.4,905,53.9z"/>
	</g>
	<rect x="948.2" y="56" class="st21" width="14.6" height="14.6"/>
</g>
<g>
	<g>
		<path class="st23" d="M1210.6,33.8c-1.5-1.4-3.2-2.6-5.1-3.4l-0.1-3.7c-1.5-0.5-3.1-0.8-4.7-0.9l-1.5,3.4c-2.1,0-4.2,0.4-6,1.2
			l-2.7-2.5c-1.4,0.7-2.7,1.6-4,2.6l1.3,3.4c-1.4,1.5-2.7,3.2-3.5,5.1l-3.7,0.1c-0.3,0.8-0.4,1.5-0.6,2.3s-0.3,1.5-0.3,2.3l3.4,1.5
			c0,2.1,0.5,4.1,1.2,6l-2.5,2.7c0.7,1.4,1.6,2.7,2.6,3.9l3.4-1.3c1.5,1.4,3.2,2.6,5.1,3.4l0.1,3.7c1.5,0.5,3.1,0.8,4.7,0.9l1.5-3.4
			c2.1,0,4.2-0.4,6-1.2l2.7,2.5c1.4-0.7,2.7-1.6,4-2.6l-1.3-3.4c1.4-1.5,2.6-3.3,3.4-5.1l3.7-0.1c0.5-1.5,0.8-3.1,0.9-4.7l-3.4-1.5
			c0-2.1-0.4-4.2-1.2-6l2.5-2.7c-0.7-1.4-1.6-2.7-2.6-4L1210.6,33.8z M1208.5,47c-1,5.1-5.9,8.3-10.9,7.3c-5.1-1-8.3-5.9-7.3-10.9
			c1-5.1,5.9-8.3,10.9-7.3l0,0C1206.2,37.1,1209.5,42,1208.5,47z"/>
		<path class="st24" d="M1260,24.7c-1.8-1.8-4-3.3-6.4-4.3l-0.1-4.6c-1.9-0.6-3.8-0.9-5.8-1.1l-1.9,4.3c-2.6,0-5.1,0.6-7.5,1.6
			l-3.3-3.2c-1.8,0.9-3.4,2-4.9,3.2l1.7,4.3c-1.8,1.8-3.3,4-4.3,6.4l-4.6,0.1c-0.3,0.9-0.6,1.9-0.8,2.9c-0.2,1-0.3,1.9-0.4,3
			l4.3,1.9c0,2.6,0.6,5.1,1.5,7.5l-3.2,3.4c0.9,1.8,2,3.4,3.3,4.8l4.2-1.7c1.8,1.8,4,3.3,6.4,4.3l0.1,4.6c0.9,0.3,1.9,0.6,2.9,0.8
			s1.9,0.4,3,0.4l1.9-4.3c2.6,0,5.1-0.6,7.5-1.5l3.3,3.2c1.8-0.9,3.4-2,4.8-3.3l-1.7-4.2c1.8-1.8,3.3-4,4.3-6.4l4.6-0.1
			c0.3-0.9,0.6-1.9,0.8-2.9c0.2-1,0.3-1.9,0.4-3l-4.3-1.9c0-2.6-0.6-5.1-1.5-7.5l3.2-3.3c-0.9-1.8-2-3.4-3.2-4.9L1260,24.7z
			 M1257.3,41.2c-1.2,6.3-7.2,10.3-13.6,9.1c-6.3-1.2-10.3-7.2-9.1-13.6c1.2-6.3,7.2-10.3,13.6-9.1c0,0,0,0,0.1,0
			C1254.5,28.9,1258.5,34.9,1257.3,41.2L1257.3,41.2z"/>
	</g>
	<path class="st25" d="M1240.5,79.8c1.7-1,2.1-3.2,1.1-4.8c-1-1.7-3.2-2.1-4.8-1.1s-2.1,3.2-1.1,4.8l0,0
		C1236.7,80.4,1238.8,80.9,1240.5,79.8L1240.5,79.8z"/>
	<path class="st26" d="M1226.2,74.4c1.1-0.7,1.5-2.1,0.7-3.3c-0.7-1.1-2.1-1.5-3.3-0.7s-1.5,2.1-0.7,3.3l0,0
		C1223.7,74.8,1225.1,75.1,1226.2,74.4L1226.2,74.4z"/>
	<path class="st27" d="M1222.6,15.4c1.3,0.3,2.5-0.6,2.8-1.9s-0.6-2.5-1.9-2.8s-2.5,0.6-2.8,1.9l0,0
		C1220.4,13.9,1221.3,15.1,1222.6,15.4L1222.6,15.4z"/>
	<line class="st28" x1="1244.1" y1="63.3" x2="1196.4" y2="66.3"/>
	<line class="st28" x1="1205.8" y1="23.8" x2="1227" y2="19.8"/>
</g>
<g>
	<g>
		<path class="st23" d="M1211.8,288.1c-1.5-1.4-3.2-2.6-5.1-3.4l-0.1-3.7c-1.5-0.5-3.1-0.8-4.7-0.9l-1.5,3.4c-2.1,0-4.2,0.5-6,1.2
			l-2.7-2.5c-1.4,0.7-2.7,1.6-4,2.6l1.3,3.4c-1.4,1.5-2.7,3.3-3.5,5.1l-3.7,0.1c-0.3,0.8-0.4,1.5-0.6,2.3s-0.3,1.5-0.3,2.3l3.4,1.5
			c0,2.1,0.5,4.1,1.2,6l-2.5,2.7c0.7,1.4,1.6,2.7,2.6,3.9l3.4-1.3c1.5,1.4,3.2,2.6,5.1,3.4l0.1,3.7c1.5,0.5,3.1,0.8,4.7,0.9l1.5-3.4
			c2.1,0,4.2-0.5,6-1.2l2.7,2.5c1.4-0.7,2.7-1.6,4-2.6l-1.3-3.4c1.4-1.5,2.6-3.3,3.4-5.1l3.7-0.1c0.5-1.5,0.8-3.1,0.9-4.7l-3.4-1.5
			c0-2.1-0.4-4.2-1.2-6l2.5-2.7c-0.7-1.4-1.6-2.7-2.6-4L1211.8,288.1z M1209.6,301.3c-1,5.1-5.9,8.3-10.9,7.3
			c-5.1-1-8.3-5.9-7.3-10.9c1-5.1,5.9-8.3,10.9-7.3l0,0C1207.4,291.3,1210.6,296.3,1209.6,301.3z"/>
		<path class="st24" d="M1261.2,279c-1.9-1.8-4-3.3-6.4-4.3l-0.1-4.6c-1.9-0.6-3.8-0.9-5.8-1.1l-1.9,4.3c-2.6,0-5.2,0.6-7.5,1.6
			l-3.3-3.2c-1.8,0.9-3.4,2-4.9,3.2l1.7,4.3c-1.8,1.9-3.3,4-4.3,6.4l-4.6,0.1c-0.3,0.9-0.6,1.9-0.8,2.9s-0.3,1.9-0.4,3l4.3,1.9
			c0,2.6,0.6,5.2,1.5,7.5l-3.2,3.4c0.9,1.8,2,3.4,3.3,4.8l4.2-1.7c1.9,1.8,4,3.3,6.4,4.3l0.1,4.6c0.9,0.3,1.9,0.6,2.9,0.8
			c1,0.2,1.9,0.4,3,0.4l1.9-4.3c2.6,0,5.2-0.6,7.5-1.5l3.3,3.2c1.8-0.9,3.4-2,4.8-3.3l-1.7-4.2c1.8-1.9,3.3-4,4.3-6.4l4.6-0.1
			c0.3-0.9,0.6-1.9,0.8-2.9s0.3-1.9,0.4-3l-4.3-1.9c0-2.6-0.6-5.2-1.5-7.5l3.2-3.3c-0.9-1.8-2-3.4-3.2-4.9L1261.2,279z
			 M1258.5,295.5c-1.2,6.3-7.3,10.4-13.6,9.1c-6.3-1.2-10.4-7.3-9.1-13.6c1.2-6.3,7.3-10.4,13.6-9.1c0,0,0,0,0.1,0
			C1255.7,283.2,1259.8,289.2,1258.5,295.5L1258.5,295.5z"/>
	</g>
	<path class="st25" d="M1241.7,334.1c1.7-1,2.1-3.2,1.1-4.8c-1-1.7-3.2-2.1-4.8-1.1c-1.7,1-2.1,3.2-1.1,4.8l0,0
		C1237.9,334.7,1240,335.2,1241.7,334.1L1241.7,334.1z"/>
	<path class="st26" d="M1227.4,328.7c1.1-0.7,1.5-2.1,0.7-3.3c-0.7-1.1-2.1-1.5-3.3-0.7s-1.5,2.1-0.7,3.3l0,0
		C1224.9,329.1,1226.3,329.4,1227.4,328.7L1227.4,328.7z"/>
	<path class="st27" d="M1223.8,269.6c1.3,0.3,2.5-0.6,2.8-1.9s-0.6-2.5-1.9-2.8s-2.5,0.6-2.8,1.9l0,0
		C1221.6,268.2,1222.4,269.4,1223.8,269.6L1223.8,269.6z"/>
	<line class="st28" x1="1245.3" y1="317.6" x2="1197.5" y2="320.6"/>
	<line class="st28" x1="1207" y1="278" x2="1228.2" y2="274.1"/>
</g>
<g>
	<g>
		<path class="st24" d="M1185,154.5c-1.7,2.4-2.9,5-3.6,7.9l-5.1,1c-0.3,2.2-0.4,4.4-0.2,6.6l5.1,1.3c0.5,2.9,1.6,5.6,3.1,8.1
			l-2.9,4.2c1.3,1.8,2.8,3.4,4.5,4.9l4.5-2.7c2.4,1.7,5,2.9,7.9,3.6l1,5.1c1,0.1,2.2,0.3,3.3,0.3c1.2,0,2.2-0.1,3.4-0.1l1.3-5.1
			c2.9-0.5,5.6-1.6,8.1-3l4.3,2.9c1.8-1.3,3.4-2.8,4.7-4.5l-2.7-4.4c1.7-2.4,2.9-5,3.6-7.9l5.1-1c0.1-1,0.3-2.2,0.3-3.3
			s0.1-2.2-0.1-3.4l-5.1-1.3c-0.5-2.9-1.6-5.6-3-8.1l2.9-4.2c-1.3-1.8-2.8-3.4-4.5-4.7l-4.4,2.7c-2.4-1.7-5-2.9-7.9-3.6l-1-5.1
			c-1-0.1-2.2-0.3-3.3-0.3s-2.2,0.1-3.4,0.1l-1.3,5.1c-2.9,0.5-5.6,1.6-8.1,3l-4.2-2.9c-1.8,1.3-3.4,2.8-4.9,4.5L1185,154.5z
			 M1203.8,154.4c7.2,0.2,12.8,6.1,12.6,13.4c-0.2,7.2-6.1,12.8-13.4,12.6c-7.2-0.2-12.8-6.1-12.6-13.4c0,0,0,0,0-0.1
			C1190.7,159.9,1196.6,154.2,1203.8,154.4L1203.8,154.4z"/>
		<path class="st6" d="M1235.8,173.5c-1.1,1.5-1.8,3.1-2.2,4.9l-3.1,0.6c-0.1,0.7-0.2,1.4-0.2,2.1s0,1.4,0.1,2.1l3.1,0.8
			c0.3,1.7,0.9,3.5,1.9,5l-1.8,2.6c0.8,1.1,1.8,2.1,2.8,3l2.8-1.7c1.5,1.1,3.1,1.8,4.9,2.2l0.6,3.1c0.7,0.1,1.4,0.2,2.1,0.2
			s1.4,0,2.1-0.1l0.8-3.1c1.7-0.3,3.5-0.9,5-1.9l2.6,1.8c1.1-0.8,2.1-1.8,3-2.8l-1.7-2.7c1.1-1.5,1.8-3.1,2.2-4.9l3.1-0.6
			c0.1-0.7,0.2-1.4,0.2-2.1c0-0.7,0-1.4-0.1-2.1l-3.1-0.8c-0.3-1.7-0.9-3.5-1.9-5l1.8-2.6c-0.8-1.1-1.8-2.1-2.8-3l-2.7,1.7
			c-1.5-1.1-3.1-1.8-4.9-2.2l-0.6-3.1c-0.7-0.1-1.4-0.2-2.1-0.2s-1.4,0-2.1,0.1l-0.8,3.1c-1.7,0.3-3.5,0.9-5,1.9l-2.6-1.8
			c-1.1,0.8-2.1,1.8-3,2.8L1235.8,173.5z M1247.4,173.4c4.4,0.1,8,3.8,7.9,8.3c-0.1,4.4-3.8,8-8.3,7.9c-4.4-0.1-8-3.8-7.9-8.3l0,0
			C1239.2,176.8,1242.9,173.3,1247.4,173.4L1247.4,173.4z"/>
	</g>
	<line class="st28" x1="1228.8" y1="153.4" x2="1245.3" y2="161.6"/>
	<path class="st25" d="M1236.6,148c-1.9,1.1-2.5,3.5-1.3,5.4s3.5,2.5,5.4,1.3c1.9-1.1,2.5-3.5,1.3-5.4l0,0
		C1240.8,147.4,1238.4,146.8,1236.6,148L1236.6,148z"/>
	<path class="st26" d="M1252.4,154.3c-1.3,0.8-1.7,2.4-0.9,3.7c0.8,1.3,2.4,1.7,3.7,0.9c1.3-0.8,1.7-2.4,0.9-3.7l0,0
		C1255.3,153.9,1253.7,153.5,1252.4,154.3L1252.4,154.3z"/>
	<path class="st27" d="M1193,200.7c0-1.5-1.1-2.7-2.6-2.7s-2.7,1.1-2.7,2.6s1.1,2.7,2.6,2.7l0,0C1191.8,203.4,1193,202.2,1193,200.7
		L1193,200.7z"/>
	<line class="st28" x1="1244.8" y1="198.2" x2="1206" y2="194.6"/>
</g>
<path class="st29" d="M306.8,313.4H11.4c-3.8,0-6.9-6.2-6.9-14.1V58.1c0-7.7,3-14.1,6.9-14.1h295.4c3.8,0,6.9,6.2,6.9,14.1v241.2
	C313.8,307.2,310.6,313.4,306.8,313.4z"/>
<g class="st0">
	<path class="st1" d="M485.2,343l-2.7-11.5h2.4l1.7,7.9l2.1-7.9h2.8l2,8l1.8-8h2.3l-2.8,11.5h-2.5l-2.3-8.6l-2.3,8.6H485.2z"/>
	<path class="st1" d="M498.7,343v-11.5h4.9c1.2,0,2.1,0.1,2.7,0.3s1,0.6,1.3,1.1s0.5,1.1,0.5,1.8c0,0.9-0.3,1.6-0.8,2.1
		c-0.5,0.6-1.3,0.9-2.3,1.1c0.5,0.3,0.9,0.6,1.2,1c0.3,0.3,0.8,1,1.3,1.9l1.4,2.2h-2.8l-1.7-2.5c-0.6-0.9-1-1.5-1.2-1.7
		s-0.5-0.4-0.7-0.5s-0.6-0.1-1.2-0.1h-0.5v4.8L498.7,343L498.7,343z M501,336.4h1.7c1.1,0,1.8,0,2.1-0.1s0.5-0.3,0.6-0.5
		s0.2-0.5,0.2-0.9s-0.1-0.7-0.3-0.9c-0.2-0.2-0.5-0.4-0.9-0.4c-0.2,0-0.8,0-1.7,0h-1.8L501,336.4L501,336.4z"/>
	<path class="st1" d="M510.2,343v-11.5h2.3V343H510.2z"/>
	<path class="st1" d="M517.3,343v-9.5h-3.4v-1.9h9.1v1.9h-3.4v9.5H517.3z"/>
	<path class="st1" d="M524.5,343v-11.5h8.5v1.9h-6.2v2.5h5.8v1.9h-5.8v3.1h6.4v1.9h-8.7V343z"/>
	<path class="st1" d="M539.6,331.6h4.2c1,0,1.7,0.1,2.2,0.2c0.7,0.2,1.2,0.5,1.7,1.1c0.5,0.5,0.8,1.1,1.1,1.9s0.4,1.6,0.4,2.7
		c0,0.9-0.1,1.8-0.4,2.4c-0.3,0.8-0.7,1.5-1.2,2c-0.4,0.4-0.9,0.7-1.6,0.9c-0.5,0.2-1.2,0.2-2,0.2h-4.4V331.6z M541.9,333.5v7.6h1.7
		c0.6,0,1.1,0,1.4-0.1c0.4-0.1,0.7-0.3,0.9-0.5s0.4-0.6,0.6-1.1s0.2-1.2,0.2-2.1s-0.1-1.6-0.2-2s-0.4-0.8-0.7-1.1s-0.6-0.4-1.1-0.5
		c-0.3-0.1-1-0.1-1.9-0.1L541.9,333.5L541.9,333.5z"/>
	<path class="st1" d="M561.5,343H559l-1-2.6h-4.6l-0.9,2.6H550l4.5-11.5h2.4L561.5,343z M557.2,338.5l-1.6-4.2l-1.5,4.2H557.2z"/>
	<path class="st1" d="M564.1,343v-9.5h-3.4v-1.9h9.1v1.9h-3.4v9.5H564.1z"/>
	<path class="st1" d="M580.4,343h-2.5l-1-2.6h-4.6l-0.9,2.6h-2.5l4.5-11.5h2.4L580.4,343z M576.2,338.5l-1.6-4.2l-1.5,4.2H576.2z"/>
</g>
<path class="st29" d="M679.1,313.4H383.7c-3.8,0-6.9-6.2-6.9-14.1V58.1c0-7.7,3-14.1,6.9-14.1h295.4c3.8,0,6.9,6.2,6.9,14.1v241.2
	C686.1,307.2,682.9,313.4,679.1,313.4z"/>
<g class="st0">
	<path class="st1" d="M841.7,114.2h-2.5l-1-2.6h-4.6l-0.9,2.6h-2.5l4.5-11.5h2.4L841.7,114.2z M837.4,109.7l-1.5-4.2l-1.5,4.2H837.4
		z"/>
	<path class="st1" d="M842.9,114.2v-11.5h3.7c1.4,0,2.3,0.1,2.8,0.2c0.7,0.2,1.2,0.5,1.6,1.1c0.4,0.6,0.7,1.3,0.7,2.2
		c0,0.7-0.1,1.3-0.4,1.8c-0.3,0.5-0.6,0.9-1,1.1c-0.4,0.3-0.8,0.5-1.2,0.5c-0.6,0.1-1.4,0.2-2.4,0.2h-1.5v4.3h-2.3L842.9,114.2
		L842.9,114.2z M845.2,104.7v3.2h1.3c0.9,0,1.5-0.1,1.8-0.2s0.5-0.3,0.7-0.6c0.2-0.3,0.3-0.6,0.3-0.9c0-0.4-0.1-0.8-0.4-1
		c-0.2-0.3-0.6-0.4-0.9-0.5c-0.3-0.1-0.8-0.1-1.7-0.1L845.2,104.7L845.2,104.7z"/>
	<path class="st1" d="M853.6,114.2v-11.5h3.7c1.4,0,2.3,0.1,2.8,0.2c0.7,0.2,1.2,0.5,1.6,1.1c0.4,0.6,0.7,1.3,0.7,2.2
		c0,0.7-0.1,1.3-0.4,1.8c-0.3,0.5-0.6,0.9-1,1.1c-0.4,0.3-0.8,0.5-1.2,0.5c-0.6,0.1-1.4,0.2-2.4,0.2h-1.5v4.3h-2.3L853.6,114.2
		L853.6,114.2z M855.9,104.7v3.2h1.3c0.9,0,1.5-0.1,1.8-0.2s0.5-0.3,0.7-0.6c0.2-0.3,0.3-0.6,0.3-0.9c0-0.4-0.1-0.8-0.4-1
		c-0.2-0.3-0.6-0.4-0.9-0.5c-0.3-0.1-0.8-0.1-1.7-0.1L855.9,104.7L855.9,104.7z"/>
	<path class="st1" d="M864.3,114.2v-11.4h2.3v9.4h5.8v1.9L864.3,114.2L864.3,114.2z"/>
	<path class="st1" d="M875.6,114.2v-4.8l-4.2-6.6h2.7l2.7,4.5l2.6-4.5h2.7l-4.2,6.6v4.8H875.6z"/>
	<path class="st1" d="M886.8,110.5l2.2-0.2c0.1,0.8,0.4,1.3,0.8,1.7s1,0.5,1.7,0.5s1.3-0.2,1.7-0.5s0.6-0.7,0.6-1.1
		c0-0.3-0.1-0.5-0.2-0.7c-0.2-0.2-0.4-0.4-0.8-0.5c-0.3-0.1-0.9-0.3-1.9-0.5c-1.2-0.3-2.1-0.7-2.6-1.1c-0.7-0.6-1.1-1.4-1.1-2.3
		c0-0.6,0.2-1.1,0.5-1.6s0.8-0.9,1.4-1.2c0.6-0.3,1.4-0.4,2.3-0.4c1.4,0,2.5,0.3,3.2,0.9s1.1,1.5,1.1,2.5l-2.3,0.1
		c-0.1-0.6-0.3-1-0.6-1.3s-0.8-0.4-1.5-0.4s-1.2,0.1-1.6,0.4c-0.2,0.2-0.4,0.4-0.4,0.7c0,0.3,0.1,0.5,0.3,0.7c0.3,0.2,1,0.5,2.1,0.8
		s2,0.5,2.5,0.8s1,0.7,1.3,1.2s0.5,1.1,0.5,1.8c0,0.7-0.2,1.3-0.5,1.8c-0.4,0.6-0.9,1-1.5,1.3c-0.7,0.3-1.5,0.4-2.5,0.4
		c-1.4,0-2.6-0.3-3.3-1C887.4,112.8,887,111.8,886.8,110.5z"/>
	<path class="st1" d="M905.4,110l2.2,0.7c-0.3,1.2-0.9,2.2-1.7,2.8s-1.8,0.9-3,0.9c-1.5,0-2.8-0.5-3.8-1.6c-1-1-1.5-2.5-1.5-4.3
		c0-1.9,0.5-3.4,1.5-4.4s2.3-1.6,3.9-1.6c1.4,0,2.5,0.4,3.4,1.2c0.5,0.5,0.9,1.2,1.2,2.1l-2.3,0.5c-0.1-0.6-0.4-1.1-0.8-1.4
		s-1-0.5-1.6-0.5c-0.8,0-1.5,0.3-2.1,0.9c-0.5,0.6-0.8,1.6-0.8,3s0.3,2.5,0.8,3.1s1.2,0.9,2,0.9c0.6,0,1.1-0.2,1.6-0.6
		C904.9,111.5,905.2,110.9,905.4,110z"/>
	<path class="st1" d="M909.6,114.2v-11.5h2.3v4.5h4.5v-4.5h2.3v11.5h-2.3v-5h-4.5v5H909.6z"/>
	<path class="st1" d="M921.2,114.2v-11.5h8.5v1.9h-6.2v2.5h5.8v1.9h-5.8v3.1h6.4v1.9h-8.7V114.2z"/>
	<path class="st1" d="M931.8,114.2v-11.5h3.5l2.1,7.8l2.1-7.8h3.5v11.5h-2.1v-9l-2.3,9h-2.2l-2.3-9v9H931.8z"/>
	<path class="st1" d="M955.5,114.2H953l-1-2.6h-4.6l-0.9,2.6H944l4.5-11.5h2.4L955.5,114.2z M951.2,109.7l-1.6-4.2l-1.5,4.2H951.2z"
		/>
</g>
<path class="st29" d="M1003.1,89.5H782.6c-2.8,0-5.2-2-5.2-4.5V7.5c0-2.5,2.3-4.5,5.2-4.5h220.5c2.8,0,5.2,2,5.2,4.5V85
	C1008.3,87.5,1005.9,89.5,1003.1,89.5z"/>
<g>
	<line class="st15" x1="829.8" y1="315.6" x2="951.5" y2="315.6"/>
	<circle class="st20" cx="830.1" cy="315.7" r="6.6"/>
	<line class="st15" x1="903.8" y1="290.2" x2="903.7" y2="320.7"/>
	<rect x="879.4" y="269" class="st21" width="49" height="20.9"/>
	<g>
		<path class="st22" d="M905.7,305.3l20.6,9.5c1,0.5,1,1.2,0,1.7l-20.6,9.5c-1,0.5-2.6,0.5-3.6,0l-20.6-9.5c-1-0.5-1-1.2,0-1.7
			l20.6-9.5C903.1,304.8,904.7,304.8,905.7,305.3z"/>
	</g>
	<rect x="948.9" y="307.4" class="st21" width="14.6" height="14.6"/>
</g>
<g class="st0">
	<path class="st1" d="M842.4,365.6h-2.5l-1-2.6h-4.6l-0.9,2.6h-2.5l4.5-11.5h2.4L842.4,365.6z M838.1,361.1l-1.6-4.2l-1.5,4.2H838.1
		z"/>
	<path class="st1" d="M843.6,365.6v-11.5h3.7c1.4,0,2.3,0.1,2.8,0.2c0.7,0.2,1.2,0.5,1.6,1.1c0.4,0.6,0.7,1.3,0.7,2.2
		c0,0.7-0.1,1.3-0.4,1.8c-0.3,0.5-0.6,0.9-1,1.1c-0.4,0.3-0.8,0.5-1.2,0.5c-0.6,0.1-1.4,0.2-2.4,0.2h-1.5v4.3L843.6,365.6
		L843.6,365.6z M845.9,356.1v3.2h1.3c0.9,0,1.5-0.1,1.8-0.2s0.5-0.3,0.7-0.6c0.2-0.3,0.3-0.6,0.3-0.9c0-0.4-0.1-0.8-0.4-1
		c-0.2-0.3-0.6-0.4-0.9-0.5c-0.3-0.1-0.8-0.1-1.7-0.1h-1.1L845.9,356.1L845.9,356.1z"/>
	<path class="st1" d="M854.3,365.6v-11.5h3.7c1.4,0,2.3,0.1,2.8,0.2c0.7,0.2,1.2,0.5,1.6,1.1c0.4,0.6,0.7,1.3,0.7,2.2
		c0,0.7-0.1,1.3-0.4,1.8c-0.3,0.5-0.6,0.9-1,1.1c-0.4,0.3-0.8,0.5-1.2,0.5c-0.6,0.1-1.4,0.2-2.4,0.2h-1.5v4.3L854.3,365.6
		L854.3,365.6z M856.6,356.1v3.2h1.3c0.9,0,1.5-0.1,1.8-0.2s0.5-0.3,0.7-0.6c0.2-0.3,0.3-0.6,0.3-0.9c0-0.4-0.1-0.8-0.4-1
		c-0.2-0.3-0.6-0.4-0.9-0.5c-0.3-0.1-0.8-0.1-1.7-0.1h-1.1L856.6,356.1L856.6,356.1z"/>
	<path class="st1" d="M865,365.6v-11.4h2.3v9.4h5.8v1.9H865V365.6z"/>
	<path class="st1" d="M876.2,365.6v-4.8l-4.2-6.6h2.7l2.7,4.5l2.6-4.5h2.7l-4.2,6.6v4.8H876.2z"/>
	<path class="st1" d="M887.5,361.9l2.2-0.2c0.1,0.8,0.4,1.3,0.8,1.7s1,0.5,1.7,0.5s1.3-0.2,1.7-0.5s0.6-0.7,0.6-1.1
		c0-0.3-0.1-0.5-0.2-0.7c-0.2-0.2-0.4-0.4-0.8-0.5c-0.3-0.1-0.9-0.3-1.9-0.5c-1.2-0.3-2.1-0.7-2.6-1.1c-0.7-0.6-1.1-1.4-1.1-2.3
		c0-0.6,0.2-1.1,0.5-1.6s0.8-0.9,1.4-1.2c0.6-0.3,1.4-0.4,2.3-0.4c1.4,0,2.5,0.3,3.2,0.9s1.1,1.5,1.1,2.5l-2.3,0.1
		c-0.1-0.6-0.3-1-0.6-1.3s-0.8-0.4-1.5-0.4s-1.2,0.1-1.6,0.4c-0.2,0.2-0.4,0.4-0.4,0.7c0,0.3,0.1,0.5,0.3,0.7c0.3,0.2,1,0.5,2.1,0.8
		s2,0.5,2.5,0.8s1,0.7,1.3,1.2s0.5,1.1,0.5,1.8c0,0.7-0.2,1.3-0.5,1.8c-0.4,0.6-0.9,1-1.5,1.3c-0.7,0.3-1.5,0.4-2.5,0.4
		c-1.4,0-2.6-0.3-3.3-1C888.1,364.2,887.6,363.2,887.5,361.9z"/>
	<path class="st1" d="M906.1,361.4l2.2,0.7c-0.3,1.2-0.9,2.2-1.7,2.8c-0.8,0.6-1.8,0.9-3,0.9c-1.5,0-2.8-0.5-3.8-1.6
		c-1-1-1.5-2.5-1.5-4.3c0-1.9,0.5-3.4,1.5-4.4s2.3-1.6,3.9-1.6c1.4,0,2.5,0.4,3.4,1.2c0.5,0.5,0.9,1.2,1.2,2.1l-2.3,0.5
		c-0.1-0.6-0.4-1.1-0.8-1.4s-1-0.5-1.6-0.5c-0.8,0-1.5,0.3-2.1,0.9c-0.5,0.6-0.8,1.6-0.8,3s0.3,2.5,0.8,3.1s1.2,0.9,2,0.9
		c0.6,0,1.1-0.2,1.6-0.6C905.5,362.9,905.9,362.3,906.1,361.4z"/>
	<path class="st1" d="M910.3,365.6v-11.5h2.3v4.5h4.5v-4.5h2.3v11.5h-2.3v-5h-4.5v5H910.3z"/>
	<path class="st1" d="M921.8,365.6v-11.5h8.5v1.9h-6.2v2.5h5.8v1.9h-5.8v3.1h6.4v1.9h-8.7V365.6z"/>
	<path class="st1" d="M932.5,365.6v-11.5h3.5l2.1,7.8l2.1-7.8h3.5v11.5h-2.1v-9l-2.3,9h-2.4l-2.3-9v9H932.5z"/>
	<path class="st1" d="M956.2,365.6h-2.5l-1-2.6h-4.6l-0.9,2.6h-2.5l4.5-11.5h2.4L956.2,365.6z M951.9,361.1l-1.6-4.2l-1.5,4.2H951.9
		z"/>
</g>
<path class="st29" d="M1003.8,340.9H783.2c-2.8,0-5.2-2-5.2-4.5v-77.5c0-2.5,2.3-4.5,5.2-4.5h220.5c2.8,0,5.2,2,5.2,4.5v77.5
	C1009,338.9,1006.6,340.9,1003.8,340.9z"/>
<g>
	<line class="st15" x1="957.9" y1="189.2" x2="836.2" y2="189.2"/>
	<circle class="st22" cx="957.6" cy="189.3" r="6.6"/>
	<line class="st15" x1="883.9" y1="163.9" x2="884" y2="194.4"/>
	<rect x="859.3" y="142.7" class="st21" width="49" height="20.9"/>
	<g>
		<path class="st20" d="M882,178.9l-20.6,9.5c-1,0.5-1,1.2,0,1.7l20.6,9.5c1,0.5,2.6,0.5,3.6,0l20.6-9.5c1-0.5,1-1.2,0-1.7
			l-20.6-9.5C884.6,178.5,883,178.5,882,178.9z"/>
	</g>
	<rect x="824.1" y="181.1" class="st20" width="14.6" height="14.6"/>
</g>
<g class="st0">
	<path class="st1" d="M842.2,237h-2.5l-1-2.6h-4.6l-0.9,2.6h-2.5l4.5-11.5h2.4L842.2,237z M837.9,232.4l-1.6-4.2l-1.5,4.2H837.9z"/>
	<path class="st1" d="M843.4,237v-11.5h3.7c1.4,0,2.3,0.1,2.8,0.2c0.7,0.2,1.2,0.5,1.6,1.1c0.4,0.6,0.7,1.3,0.7,2.2
		c0,0.7-0.1,1.3-0.4,1.8c-0.3,0.5-0.6,0.9-1,1.1c-0.4,0.3-0.8,0.5-1.2,0.5c-0.6,0.1-1.4,0.2-2.4,0.2h-1.5v4.3L843.4,237L843.4,237z
		 M845.7,227.5v3.2h1.3c0.9,0,1.5-0.1,1.8-0.2c0.3-0.1,0.5-0.3,0.7-0.6s0.3-0.6,0.3-0.9c0-0.4-0.1-0.8-0.4-1
		c-0.2-0.3-0.6-0.4-0.9-0.5c-0.3-0.1-0.8-0.1-1.7-0.1h-1.1L845.7,227.5L845.7,227.5z"/>
	<path class="st1" d="M854.1,237v-11.5h3.7c1.4,0,2.3,0.1,2.8,0.2c0.7,0.2,1.2,0.5,1.6,1.1c0.4,0.6,0.7,1.3,0.7,2.2
		c0,0.7-0.1,1.3-0.4,1.8c-0.3,0.5-0.6,0.9-1,1.1c-0.4,0.3-0.8,0.5-1.2,0.5c-0.6,0.1-1.4,0.2-2.4,0.2h-1.5v4.3L854.1,237L854.1,237z
		 M856.4,227.5v3.2h1.3c0.9,0,1.5-0.1,1.8-0.2c0.3-0.1,0.5-0.3,0.7-0.6s0.3-0.6,0.3-0.9c0-0.4-0.1-0.8-0.4-1
		c-0.2-0.3-0.6-0.4-0.9-0.5c-0.3-0.1-0.8-0.1-1.7-0.1h-1.1L856.4,227.5L856.4,227.5z"/>
	<path class="st1" d="M864.8,237v-11.4h2.3v9.4h5.8v1.9h-8.1V237z"/>
	<path class="st1" d="M876.1,237v-4.8l-4.2-6.7h2.7l2.7,4.5l2.6-4.5h2.7l-4.2,6.6v4.8L876.1,237L876.1,237z"/>
	<path class="st1" d="M887.3,233.2l2.2-0.2c0.1,0.8,0.4,1.3,0.8,1.7s1,0.5,1.7,0.5s1.3-0.2,1.7-0.5s0.6-0.7,0.6-1.1
		c0-0.3-0.1-0.5-0.2-0.7c-0.2-0.2-0.4-0.4-0.8-0.5c-0.3-0.1-0.9-0.3-1.9-0.5c-1.2-0.3-2.1-0.7-2.6-1.1c-0.7-0.6-1.1-1.4-1.1-2.3
		c0-0.6,0.2-1.1,0.5-1.6s0.8-0.9,1.4-1.2c0.6-0.3,1.4-0.4,2.3-0.4c1.4,0,2.5,0.3,3.2,0.9s1.1,1.5,1.1,2.5l-2.3,0.1
		c-0.1-0.6-0.3-1-0.6-1.3s-0.8-0.4-1.5-0.4s-1.2,0.1-1.6,0.4c-0.2,0.2-0.4,0.4-0.4,0.7s0.1,0.5,0.3,0.7c0.3,0.2,1,0.5,2.1,0.8
		s2,0.5,2.5,0.8s1,0.7,1.3,1.2s0.5,1.1,0.5,1.8s-0.2,1.3-0.5,1.8c-0.4,0.6-0.9,1-1.5,1.3c-0.7,0.3-1.5,0.4-2.5,0.4
		c-1.4,0-2.6-0.3-3.3-1C887.9,235.5,887.5,234.5,887.3,233.2z"/>
	<path class="st1" d="M905.9,232.8l2.2,0.7c-0.3,1.2-0.9,2.2-1.7,2.8s-1.8,0.9-3,0.9c-1.5,0-2.8-0.5-3.8-1.6c-1-1-1.5-2.5-1.5-4.3
		c0-1.9,0.5-3.4,1.5-4.4s2.3-1.6,3.9-1.6c1.4,0,2.5,0.4,3.4,1.2c0.5,0.5,0.9,1.2,1.2,2.1l-2.3,0.5c-0.1-0.6-0.4-1.1-0.8-1.4
		s-1-0.5-1.6-0.5c-0.8,0-1.5,0.3-2.1,0.9c-0.5,0.6-0.8,1.6-0.8,3s0.3,2.5,0.8,3.1s1.2,0.9,2,0.9c0.6,0,1.1-0.2,1.6-0.6
		C905.4,234.2,905.7,233.6,905.9,232.8z"/>
	<path class="st1" d="M910.1,237v-11.5h2.3v4.5h4.5v-4.5h2.3V237h-2.3v-5h-4.5v5H910.1z"/>
	<path class="st1" d="M921.7,237v-11.5h8.5v1.9H924v2.5h5.8v1.9H924v3.1h6.4v1.9h-8.7V237z"/>
	<path class="st1" d="M932.3,237v-11.5h3.5l2.1,7.8l2.1-7.8h3.5V237h-2.1v-9l-2.3,9h-2.2l-2.3-9v9H932.3z"/>
	<path class="st1" d="M956,237h-2.5l-1-2.6h-4.6L947,237h-2.5l4.5-11.5h2.4L956,237z M951.7,232.4l-1.6-4.2l-1.5,4.2H951.7z"/>
</g>
<path class="st29" d="M1003.6,214.6H783.1c-2.8,0-5.2-2-5.2-4.5v-77.6c0-2.5,2.3-4.5,5.2-4.5h220.6c2.8,0,5.2,2,5.2,4.5V210
	C1008.8,212.6,1006.5,214.6,1003.6,214.6z"/>
<g class="st0">
	<path class="st1" d="M1196.2,114.2h-2.5l-1-2.6h-4.6l-0.9,2.6h-2.5l4.5-11.5h2.4L1196.2,114.2z M1191.9,109.7l-1.6-4.2l-1.5,4.2
		H1191.9z"/>
	<path class="st1" d="M1197.5,114.2v-11.5h2.2l4.7,7.6v-7.6h2.1v11.5h-2.3l-4.6-7.5v7.5H1197.5z"/>
	<path class="st1" d="M1219.3,114.2h-2.5l-1-2.6h-4.6l-0.9,2.6h-2.5l4.5-11.5h2.4L1219.3,114.2z M1215.1,109.7l-1.6-4.2l-1.5,4.2
		H1215.1z"/>
	<path class="st1" d="M1220.6,114.2v-11.4h2.3v9.4h5.8v1.9L1220.6,114.2L1220.6,114.2L1220.6,114.2z"/>
	<path class="st1" d="M1231.9,114.2v-4.8l-4.2-6.6h2.7l2.7,4.5l2.6-4.5h2.7l-4.2,6.6v4.8H1231.9z"/>
	<path class="st1" d="M1238.5,114.2v-2.1l6-7.4h-5.3v-1.9h8.4v1.8l-6.3,7.7h6.5v1.9H1238.5z"/>
	<path class="st1" d="M1249.3,114.2v-11.5h8.5v1.9h-6.2v2.5h5.8v1.9h-5.8v3.1h6.4v1.9h-8.7L1249.3,114.2L1249.3,114.2z"/>
</g>
<path class="st29" d="M1334.4,89.5h-220.5c-2.8,0-5.2-2-5.2-4.5V7.5c0-2.5,2.3-4.5,5.2-4.5h220.5c2.8,0,5.2,2,5.2,4.5V85
	C1339.6,87.5,1337.2,89.5,1334.4,89.5z"/>
<g class="st0">
	<path class="st1" d="M1196.9,365.6h-2.5l-1-2.6h-4.6l-0.9,2.6h-2.5l4.5-11.5h2.4L1196.9,365.6z M1192.6,361.1l-1.6-4.2l-1.5,4.2
		H1192.6z"/>
	<path class="st1" d="M1198.1,365.6v-11.5h2.2l4.7,7.6v-7.6h2.1v11.5h-2.3l-4.6-7.5v7.5H1198.1z"/>
	<path class="st1" d="M1220,365.6h-2.5l-1-2.6h-4.6l-0.9,2.6h-2.5l4.5-11.5h2.4L1220,365.6z M1215.7,361.1l-1.6-4.2l-1.5,4.2H1215.7
		z"/>
	<path class="st1" d="M1221.3,365.6v-11.4h2.3v9.4h5.8v1.9h-8.1L1221.3,365.6L1221.3,365.6z"/>
	<path class="st1" d="M1232.5,365.6v-4.8l-4.2-6.6h2.7l2.7,4.5l2.6-4.5h2.7l-4.2,6.6v4.8H1232.5z"/>
	<path class="st1" d="M1239.2,365.6v-2.1l6-7.4h-5.3v-1.9h8.4v1.8l-6.3,7.7h6.5v1.9H1239.2z"/>
	<path class="st1" d="M1250,365.6v-11.5h8.5v1.9h-6.2v2.5h5.8v1.9h-5.8v3.1h6.4v1.9h-8.7L1250,365.6L1250,365.6z"/>
</g>
<path class="st29" d="M1335.1,340.9h-220.5c-2.8,0-5.2-2-5.2-4.5v-77.5c0-2.5,2.3-4.5,5.2-4.5h220.5c2.8,0,5.2,2,5.2,4.5v77.5
	C1340.3,338.9,1337.9,340.9,1335.1,340.9z"/>
<g class="st0">
	<path class="st1" d="M1196.7,237h-2.5l-1-2.6h-4.6l-0.9,2.6h-2.5l4.5-11.5h2.4L1196.7,237z M1192.4,232.4l-1.6-4.2l-1.5,4.2H1192.4
		z"/>
	<path class="st1" d="M1197.9,237v-11.5h2.2l4.7,7.6v-7.6h2.1V237h-2.3l-4.6-7.5v7.5H1197.9z"/>
	<path class="st1" d="M1219.8,237h-2.5l-1-2.6h-4.6l-0.9,2.6h-2.5l4.5-11.5h2.4L1219.8,237z M1215.6,232.4l-1.6-4.2l-1.5,4.2H1215.6
		z"/>
	<path class="st1" d="M1221.1,237v-11.4h2.3v9.4h5.8v1.9h-8.1L1221.1,237L1221.1,237z"/>
	<path class="st1" d="M1232.3,237v-4.8l-4.2-6.6h2.7l2.7,4.5l2.6-4.5h2.7l-4.2,6.6v4.8H1232.3z"/>
	<path class="st1" d="M1239,237v-2.1l6-7.4h-5.3v-2h8.4v1.8l-6.3,7.7h6.5v1.9h-9.3L1239,237L1239,237z"/>
	<path class="st1" d="M1249.8,237v-11.5h8.5v1.9h-6.2v2.5h5.8v1.9h-5.8v3.1h6.4v1.9h-8.7L1249.8,237L1249.8,237z"/>
</g>
<path class="st29" d="M1334.9,214.6h-220.6c-2.8,0-5.2-2-5.2-4.5v-77.6c0-2.5,2.3-4.5,5.2-4.5h220.6c2.8,0,5.2,2,5.2,4.5V210
	C1340.1,212.6,1337.7,214.6,1334.9,214.6z"/>
<line class="st29" x1="313.7" y1="178.4" x2="376.8" y2="178.4"/>
<line class="st29" x1="686.1" y1="179.7" x2="777.6" y2="179.9"/>
<line class="st29" x1="685.7" y1="62" x2="777.1" y2="62.2"/>
<line class="st29" x1="686.1" y1="284.6" x2="777.6" y2="284.8"/>
<line class="st29" x1="1008.9" y1="171.7" x2="1109" y2="172"/>
<line class="st29" x1="1008.5" y1="40" x2="1108.5" y2="40.2"/>
<line class="st29" x1="1008.9" y1="302.6" x2="1109" y2="302.8"/>
</svg>
