<?xml version="1.0" encoding="utf-8"?>
<!-- Generator: Adobe Illustrator 26.5.0, SVG Export Plug-In . SVG Version: 6.00 Build 0)  -->
<svg version="1.1" id="Слой_1" xmlns="http://www.w3.org/2000/svg" xmlns:xlink="http://www.w3.org/1999/xlink" x="0px" y="0px"
	 viewBox="0 0 1386 390.4" style="enable-background:new 0 0 1386 390.4;" xml:space="preserve">
<style type="text/css">
	.st0{fill:none;stroke:#1D3550;stroke-width:2;stroke-linecap:round;stroke-linejoin:round;}
	.st1{fill:#61CAD6;stroke:#263852;stroke-width:2;}
	.st2{fill:#CEDB56;stroke:#263852;stroke-width:2;stroke-linecap:round;stroke-linejoin:round;}
	.st3{fill:#3BC2D7;stroke:#263953;stroke-width:2;stroke-linecap:round;stroke-linejoin:round;}
	.st4{fill:#FFFFFF;stroke:#263953;stroke-width:2;stroke-linecap:round;stroke-linejoin:round;}
	.st5{fill:#FFFFFF;stroke:#1D3651;stroke-width:2;}
	.st6{fill:#CCCCCB;stroke:#1D3651;stroke-width:2;}
	.st7{fill:#DE664E;stroke:#1D3550;stroke-width:2;stroke-miterlimit:10;}
	.st8{fill:#CEDB56;stroke:#263953;stroke-width:2;stroke-linecap:round;stroke-linejoin:round;}
	.st9{fill:#FFFFFF;stroke:#263852;stroke-width:2;}
	.st10{fill:#CEDB56;stroke:#263953;stroke-width:2;stroke-linecap:round;stroke-linejoin:round;stroke-miterlimit:4;}
	.st11{enable-background:new    ;}
	.st12{fill:#263852;}
	.st13{fill:none;stroke:#1D3550;stroke-linecap:round;stroke-linejoin:round;}
	.st14{fill:none;stroke:#263953;stroke-width:3;stroke-linecap:round;stroke-linejoin:round;}
	.st15{fill:#263953;}
	.st16{fill:#CEDB56;stroke:#263852;stroke-width:2;stroke-miterlimit:10;}
	.st17{fill:#76CDD8;stroke:#263953;stroke-width:2;}
	
		.st18{fill-rule:evenodd;clip-rule:evenodd;fill:#76CDD8;stroke:#263953;stroke-width:2;stroke-linecap:round;stroke-linejoin:round;}
	.st19{fill-rule:evenodd;clip-rule:evenodd;fill:#CEDB56;}
	.st20{fill:#FFFFFF;stroke:#263953;stroke-width:2;}
	.st21{fill:none;stroke:#263953;stroke-width:2;stroke-linecap:round;stroke-linejoin:round;}
	.st22{fill:#CCCCCC;stroke:#263852;stroke-width:2;stroke-miterlimit:10;}
	.st23{fill-rule:evenodd;clip-rule:evenodd;fill:#FFFFFF;stroke:#263852;stroke-width:2;stroke-miterlimit:10;}
	.st24{fill-rule:evenodd;clip-rule:evenodd;fill:#D35D47;stroke:#263852;stroke-width:2;stroke-miterlimit:10;}
	
		.st25{fill-rule:evenodd;clip-rule:evenodd;fill:#CEDB56;stroke:#263953;stroke-width:2;stroke-linecap:round;stroke-linejoin:round;}
	.st26{fill:none;stroke:#76CDD8;stroke-width:2;stroke-linecap:round;stroke-linejoin:round;}
	.st27{fill:none;stroke:#CEDB56;stroke-width:2;stroke-linecap:round;stroke-linejoin:round;}
	.st28{fill:none;stroke:#76CDD7;stroke-width:2;stroke-linecap:round;stroke-linejoin:round;}
	.st29{fill:none;stroke:#263852;stroke-width:2;stroke-linecap:round;stroke-dasharray:2,6.01;}
	.st30{fill:#1D3550;}
</style>
<g>
	<polyline class="st0" points="476.1,254.8 476.1,178 617.7,178 	"/>
	<circle class="st1" cx="476.4" cy="257.9" r="10.2"/>
	<line class="st0" x1="543.9" y1="138.7" x2="543.9" y2="210.9"/>
	<rect x="506.2" y="105.9" class="st2" width="75.8" height="32.4"/>
	<path class="st3" d="M569.4,235.5h-50.7c-6.9,0-12.6-5.6-12.6-12.6l0,0c0-6.9,5.6-12.6,12.6-12.6h50.7c6.9,0,12.6,5.6,12.6,12.6
		l0,0C582,229.9,576.4,235.5,569.4,235.5z"/>
	<g>
		<path class="st4" d="M546.9,162l31.8,14.7c1.6,0.7,1.6,1.8,0,2.6L546.9,194c-1.6,0.7-4,0.7-5.6,0l-31.8-14.7
			c-1.6-0.7-1.6-1.8,0-2.6l31.8-14.7C542.9,161.3,545.3,161.3,546.9,162z"/>
	</g>
	<rect x="613.7" y="165.3" class="st2" width="22.6" height="22.6"/>
</g>
<g>
	<path class="st5" d="M944.9,123.6h-19.2h-57.3h-19.2c-2.3,0-4.3,2-4.3,4.3V147v104.3c0,2.3,2,4.3,4.3,4.3h95.7c2.3,0,4.3-2,4.3-4.3
		V147v-19.2C949.1,125.4,947.2,123.6,944.9,123.6z"/>
	<path class="st6" d="M932.3,133.2h-70.1V121c0-3.8,3-6.8,6.8-6.8h56.6c3.8,0,6.8,3,6.8,6.8L932.3,133.2L932.3,133.2z"/>
	<line class="st0" x1="861.9" y1="157.1" x2="931.6" y2="157.3"/>
	<line class="st0" x1="861.9" y1="167.3" x2="931.6" y2="167.4"/>
	<line class="st0" x1="861.9" y1="177.3" x2="931.6" y2="177.6"/>
	<g>
		<path class="st7" d="M914.6,214.6c-0.7-13.2-11.6-23.8-25-23.8c-0.2,0-0.6,0-0.8,0v8.5c0.2,0,0.6,0,0.8,0
			c8.7,0,15.8,6.7,16.5,15.2h-2.3l6.3,7l6.4-7L914.6,214.6L914.6,214.6z"/>
		<path class="st3" d="M895.2,195.6l-7.7-7.1v2.6c-12.6,1.1-22.7,11.7-22.9,24.6h8.5c0.2-8.2,6.4-15,14.4-16v3L895.2,195.6z"/>
		<path class="st8" d="M914.6,216.5l-4.6,5l-3.9-4.4c-0.2,6.2-3.9,10.2-9,13.5l0,0c-2.2,1.2-4.8,1.9-7.5,1.9
			c-8.9,0-16.3-7.1-16.5-16h3l-7-7.7l-7.1,7.7h2.6c0.2,13.6,11.4,24.5,25,24.5c5.4,0,10.3-1.8,14.4-4.6c0.1,0,0.1-0.1,0.2-0.1
			c0.1,0,0.1-0.1,0.2-0.1l0,0C910.4,231.6,914.3,224.3,914.6,216.5z"/>
	</g>
	<g>
		<path class="st9" d="M973,241.6c-4.3,7.2-6.9,11.5-6.9,11.5s-2.6-5.2-5.6-11.6l0.7-65.9l12.5,0.2L973,241.6z"/>
		
			<rect x="962.6" y="173.9" transform="matrix(1.460035e-02 -0.9999 0.9999 1.460035e-02 772.9171 1144.6105)" class="st10" width="9.1" height="12.5"/>
	</g>
</g>
<g class="st11">
	<path class="st12" d="M863.1,347.3l-2.7-11.5h2.4l1.7,7.9l2.1-7.9h2.8l2,8l1.8-8h2.3l-2.8,11.5h-2.5l-2.3-8.6l-2.3,8.6H863.1z"/>
	<path class="st12" d="M876.6,347.3v-11.5h4.9c1.2,0,2.1,0.1,2.7,0.3s1,0.6,1.3,1.1s0.5,1.1,0.5,1.8c0,0.9-0.3,1.6-0.8,2.1
		c-0.5,0.6-1.3,0.9-2.3,1.1c0.5,0.3,0.9,0.6,1.2,1c0.3,0.3,0.8,1,1.3,1.9l1.4,2.2H884l-1.7-2.5c-0.6-0.9-1-1.5-1.2-1.7
		s-0.5-0.4-0.7-0.5s-0.6-0.1-1.2-0.1h-0.5v4.8L876.6,347.3L876.6,347.3z M878.9,340.7h1.7c1.1,0,1.8,0,2.1-0.1s0.5-0.3,0.6-0.5
		s0.2-0.5,0.2-0.9s-0.1-0.7-0.3-0.9s-0.5-0.4-0.9-0.4c-0.2,0-0.8,0-1.7,0h-1.8v2.8H878.9L878.9,340.7z"/>
	<path class="st12" d="M888.1,347.3v-11.5h2.3v11.5H888.1z"/>
	<path class="st12" d="M895.2,347.3v-9.5h-3.4v-1.9h9.1v1.9h-3.4v9.5H895.2z"/>
	<path class="st12" d="M902.4,347.3v-11.5h8.5v1.9h-6.2v2.5h5.8v1.9h-5.8v3.1h6.4v1.9h-8.7V347.3z"/>
	<path class="st12" d="M917.5,335.8h4.2c1,0,1.7,0.1,2.2,0.2c0.7,0.2,1.2,0.5,1.7,1.1c0.5,0.5,0.8,1.1,1.1,1.9s0.4,1.6,0.4,2.7
		c0,0.9-0.1,1.8-0.4,2.4c-0.3,0.8-0.7,1.5-1.2,2c-0.4,0.4-0.9,0.7-1.6,0.9c-0.5,0.2-1.2,0.2-2,0.2h-4.4V335.8z M919.8,337.8v7.6h1.7
		c0.6,0,1.1,0,1.4-0.1c0.4-0.1,0.7-0.3,0.9-0.5s0.4-0.6,0.6-1.1s0.2-1.2,0.2-2.1s-0.1-1.6-0.2-2s-0.4-0.8-0.7-1.1s-0.6-0.4-1.1-0.5
		c-0.3-0.1-1-0.1-1.9-0.1L919.8,337.8L919.8,337.8z"/>
	<path class="st12" d="M939.4,347.3h-2.5l-1-2.6h-4.6l-0.9,2.6h-2.5l4.5-11.5h2.4L939.4,347.3z M935.1,342.7l-1.6-4.2l-1.5,4.2
		H935.1z"/>
	<path class="st12" d="M942,347.3v-9.5h-3.4v-1.9h9.1v1.9h-3.4v9.5H942z"/>
	<path class="st12" d="M958.3,347.3h-2.5l-1-2.6h-4.6l-0.9,2.6h-2.5l4.5-11.5h2.4L958.3,347.3z M954.1,342.7l-1.6-4.2l-1.5,4.2
		H954.1z"/>
</g>
<path class="st13" d="M1057,317.6H761.6c-3.8,0-6.9-6.2-6.9-14.1V62.4c0-7.7,3-14.1,6.9-14.1H1057c3.8,0,6.9,6.2,6.9,14.1v241.2
	C1063.9,311.4,1060.8,317.6,1057,317.6z"/>
<g class="st11">
	<path class="st12" d="M120.1,343.1l2.2,0.7c-0.3,1.2-0.9,2.2-1.7,2.8c-0.8,0.6-1.8,0.9-3,0.9c-1.5,0-2.8-0.5-3.8-1.6
		c-1-1-1.5-2.5-1.5-4.3c0-1.9,0.5-3.4,1.5-4.4s2.3-1.6,3.9-1.6c1.4,0,2.5,0.4,3.4,1.2c0.5,0.5,0.9,1.2,1.2,2.1l-2.3,0.5
		c-0.1-0.6-0.4-1.1-0.8-1.4s-1-0.5-1.6-0.5c-0.8,0-1.5,0.3-2.1,0.9c-0.5,0.6-0.8,1.6-0.8,3s0.3,2.5,0.8,3.1s1.2,0.9,2,0.9
		c0.6,0,1.1-0.2,1.6-0.6C119.6,344.5,119.9,343.9,120.1,343.1z"/>
	<path class="st12" d="M123.8,341.6c0-1.2,0.2-2.1,0.5-2.9c0.3-0.6,0.6-1.1,1.1-1.6s0.9-0.8,1.5-1c0.7-0.3,1.5-0.5,2.5-0.5
		c1.7,0,3,0.5,4.1,1.6c1,1,1.5,2.5,1.5,4.4c0,1.8-0.5,3.3-1.5,4.3s-2.3,1.6-4,1.6s-3.1-0.5-4.1-1.6
		C124.3,344.9,123.8,343.4,123.8,341.6z M126.2,341.5c0,1.3,0.3,2.3,0.9,2.9c0.6,0.7,1.4,1,2.3,1s1.7-0.3,2.3-1s0.9-1.7,0.9-3
		s-0.3-2.3-0.9-2.9c-0.6-0.6-1.3-1-2.3-1s-1.7,0.3-2.3,1C126.5,339.2,126.2,340.2,126.2,341.5z"/>
	<path class="st12" d="M136.8,347.3v-11.4h2.3v9.4h5.8v1.9L136.8,347.3L136.8,347.3z"/>
	<path class="st12" d="M146.6,347.3v-11.4h2.3v9.4h5.8v1.9L146.6,347.3L146.6,347.3z"/>
	<path class="st12" d="M156.3,347.3v-11.5h8.5v1.9h-6.2v2.5h5.8v1.9h-5.8v3.1h6.4v1.9h-8.7V347.3z"/>
	<path class="st12" d="M174.3,343.1l2.2,0.7c-0.3,1.2-0.9,2.2-1.7,2.8s-1.8,0.9-3,0.9c-1.5,0-2.8-0.5-3.8-1.6c-1-1-1.5-2.5-1.5-4.3
		c0-1.9,0.5-3.4,1.5-4.4s2.3-1.6,3.9-1.6c1.4,0,2.5,0.4,3.4,1.2c0.5,0.5,0.9,1.2,1.2,2.1l-2.3,0.5c-0.1-0.6-0.4-1.1-0.8-1.4
		s-1-0.5-1.6-0.5c-0.8,0-1.5,0.3-2.1,0.9c-0.5,0.6-0.8,1.6-0.8,3s0.3,2.5,0.8,3.1s1.2,0.9,2,0.9c0.6,0,1.1-0.2,1.6-0.6
		C173.8,344.5,174.1,343.9,174.3,343.1z"/>
	<path class="st12" d="M181.1,347.3v-9.5h-3.4v-1.9h9.1v1.9h-3.4v9.5H181.1z"/>
	<path class="st12" d="M192.7,335.8h4.2c1,0,1.7,0.1,2.2,0.2c0.7,0.2,1.2,0.5,1.7,1.1c0.5,0.5,0.8,1.1,1.1,1.9s0.4,1.6,0.4,2.7
		c0,0.9-0.1,1.8-0.4,2.4c-0.3,0.8-0.7,1.5-1.2,2c-0.4,0.4-0.9,0.7-1.6,0.9c-0.5,0.2-1.2,0.2-2,0.2h-4.4V335.8z M195,337.8v7.6h1.7
		c0.6,0,1.1,0,1.4-0.1c0.4-0.1,0.7-0.3,0.9-0.5s0.4-0.6,0.6-1.1s0.2-1.2,0.2-2.1s-0.1-1.6-0.2-2s-0.4-0.8-0.7-1.1s-0.6-0.4-1.1-0.5
		c-0.3-0.1-1-0.1-1.9-0.1L195,337.8L195,337.8z"/>
	<path class="st12" d="M214.6,347.3h-2.5l-1-2.6h-4.6l-0.9,2.6h-2.5l4.5-11.5h2.4L214.6,347.3z M210.4,342.7l-1.6-4.2l-1.5,4.2
		H210.4z"/>
	<path class="st12" d="M217.2,347.3v-9.5h-3.4v-1.9h9.1v1.9h-3.4v9.5H217.2z"/>
	<path class="st12" d="M233.6,347.3h-2.5l-1-2.6h-4.6l-0.9,2.6h-2.5l4.5-11.5h2.4L233.6,347.3z M229.3,342.7l-1.6-4.2l-1.5,4.2
		H229.3z"/>
</g>
<g>
	<g>
		<polyline class="st14" points="193.7,203.6 183.9,207.7 174.2,211.8 175.5,201.4 176.5,193.3 		"/>
		<polyline class="st14" points="217.2,171 218.2,162.8 219.5,152.3 209.8,156.5 200,160.6 		"/>
		<line class="st14" x1="217.6" y1="176.9" x2="191.8" y2="167.1"/>
		<circle class="st15" cx="208.5" cy="182.8" r="2.2"/>
		<circle class="st15" cx="204.3" cy="188.5" r="2.2"/>
		<circle class="st15" cx="200.1" cy="194.2" r="2.2"/>
	</g>
	<path class="st16" d="M206,217.8h-71.1c-1.8,0-3.2-1.4-3.2-3.2v-7.2c0-1.8,1.4-3.2,3.2-3.2H206c1.8,0,3.2,1.4,3.2,3.2v7.2
		C209.2,216.4,207.7,217.8,206,217.8z"/>
	<path class="st17" d="M137.3,218v7.8c0,1.4,0.5,2.8,1.5,3.8l24.9,28.2v29.9h13.7v-29.9l24.7-28.2c0.9-1.1,1.4-2.4,1.4-3.8V218
		H137.3z"/>
	<path class="st18" d="M209.5,104.6c-1.3-0.9-2.8-1.5-4.4-1.8l-0.6-2.8c-1.2-0.1-2.4-0.1-3.6,0l-0.6,2.8c-1.6,0.3-3,0.9-4.4,1.8
		l-2.4-1.5c-1,0.7-1.8,1.6-2.6,2.6l1.5,2.4c-0.9,1.3-1.5,2.8-1.8,4.4l-2.8,0.6c-0.1,0.6-0.1,1.2-0.1,1.8s0,1.2,0.1,1.8l2.8,0.6
		c0.3,1.6,0.9,3,1.8,4.4l-1.5,2.4c0.7,1,1.6,1.8,2.6,2.6l2.4-1.5c1.3,0.9,2.8,1.5,4.4,1.8l0.6,2.8c0.6,0.1,1.2,0.1,1.8,0.1
		s1.2,0,1.8-0.1l0.6-2.8c1.6-0.3,3-0.9,4.4-1.8l2.4,1.5c1-0.7,1.8-1.6,2.6-2.6l-1.5-2.4c0.9-1.3,1.5-2.8,1.8-4.4l2.8-0.6
		c0.1-0.6,0.1-1.2,0.1-1.8s0-1.2-0.1-1.8l-2.8-0.6c-0.3-1.6-0.9-3-1.8-4.4l1.5-2.4c-0.7-1-1.6-1.8-2.6-2.6L209.5,104.6z
		 M209.8,114.8c0,3.9-3.2,7.1-7.1,7.1s-7.1-3.2-7.1-7.1s3.2-7.1,7.1-7.1l0,0C206.6,107.7,209.8,110.9,209.8,114.8L209.8,114.8z"/>
	<path class="st19" d="M146.8,89.6c-0.7-0.5-1.5-0.8-2.3-1l-0.3-1.5c-0.6-0.1-1.3-0.1-1.9,0l-0.3,1.5c-0.8,0.2-1.6,0.5-2.3,1
		l-1.2-0.8c-0.5,0.4-1,0.8-1.4,1.3l0.8,1.3c-0.5,0.7-0.8,1.5-1,2.3l-1.5,0.3c0,0.3-0.1,0.6-0.1,1c0,0.3,0,0.6,0.1,1l1.5,0.3
		c0.2,0.8,0.5,1.6,0.9,2.3l-0.8,1.3c0.4,0.5,0.8,1,1.3,1.3l1.2-0.8c0.7,0.5,1.5,0.8,2.3,1l0.3,1.5c0.3,0,0.6,0.1,1,0.1
		c0.3,0,0.6,0,1-0.1l0.3-1.5c0.8-0.2,1.6-0.5,2.3-0.9l1.2,0.8c0.5-0.4,1-0.8,1.3-1.3l-0.8-1.2c0.5-0.7,0.8-1.5,1-2.3l1.5-0.3
		c0-0.3,0.1-0.6,0.1-1c0-0.3,0-0.6-0.1-1l-1.5-0.3c-0.2-0.8-0.5-1.6-0.9-2.3l0.8-1.2c-0.4-0.5-0.8-1-1.3-1.4L146.8,89.6z M146.9,95
		c0,2.1-1.7,3.7-3.8,3.7s-3.7-1.7-3.7-3.8s1.7-3.7,3.8-3.7l0,0C145.3,91.3,146.9,93,146.9,95L146.9,95z"/>
	<g>
		<g>
			<path class="st20" d="M190.4,135l11.3,37.3c0.7,2.1-0.5,4.3-2.6,4.9l-56,16.9c-2.1,0.7-4.3-0.5-4.9-2.6l-11.3-37.3
				c-0.7-2.1,0.5-4.3,2.6-4.9l56-16.9C187.6,131.8,189.8,133,190.4,135z"/>
		</g>
		<polyline class="st21" points="133.3,155.8 165.3,167.1 185.9,138 		"/>
		<line class="st21" x1="143.2" y1="187.7" x2="158.8" y2="165.4"/>
		<line class="st21" x1="169.3" y1="162.2" x2="196.3" y2="171.6"/>
	</g>
	<g>
		<path class="st22" d="M141.4,173.1l-2.6,3.4c-2.3,2.9-1.8,7,1.1,9.3l1.1,0.9c2.9,2.2,7.1,1.7,9.3-1.2l2.6-3.4
			c2.2-2.9,1.7-7-1.2-9.3l-1.1-0.9C147.8,169.7,143.6,170.2,141.4,173.1z M142.9,174.9c1.5-2,4.4-2.3,6.4-0.8l0.6,0.4l0,0
			c2,1.5,2.4,4.4,0.8,6.4l-2.1,2.7c-1.5,2-4.4,2.4-6.4,0.8l-0.6-0.4l0,0c-2-1.5-2.4-4.4-0.8-6.4L142.9,174.9z"/>
		<path class="st7" d="M151,190l-7.4,9.5c-1.6,2-4.5,2.4-6.6,0.8l-9.5-7.4c-2-1.6-2.4-4.5-0.8-6.6l7.4-9.5c1.6-2,4.5-2.4,6.6-0.8
			l9.5,7.4C152.3,185,152.6,188,151,190z"/>
		<path class="st23" d="M134.7,191.1c-0.5,0.7-0.4,1.8,0.3,2.3s1.8,0.4,2.3-0.3l1.8-2.4c1.1,0.3,2.3,0.2,3.3-0.4
			c2.1-1.2,2.8-3.8,1.6-5.9s-3.9-2.8-5.9-1.6c-2.1,1.2-2.8,3.9-1.6,5.9L134.7,191.1z"/>
	</g>
</g>
<path class="st13" d="M320.3,317.6H24.9c-3.8,0-6.9-6.2-6.9-14.1V62.4c0-7.7,3-14.1,6.9-14.1h295.4c3.8,0,6.9,6.2,6.9,14.1v241.2
	C327.2,311.4,324,317.6,320.3,317.6z"/>
<g class="st11">
	<path class="st12" d="M489.4,347.3h-2.5l-1-2.6h-4.6l-0.9,2.6h-2.5l4.5-11.5h2.4L489.4,347.3z M485.1,342.7l-1.6-4.2l-1.5,4.2
		H485.1z"/>
	<path class="st12" d="M490.6,347.3v-11.5h3.7c1.4,0,2.3,0.1,2.8,0.2c0.7,0.2,1.2,0.5,1.6,1.1s0.7,1.3,0.7,2.2
		c0,0.7-0.1,1.3-0.4,1.8s-0.6,0.9-1,1.1c-0.4,0.3-0.8,0.5-1.2,0.5c-0.6,0.1-1.4,0.2-2.4,0.2h-1.5v4.3L490.6,347.3L490.6,347.3
		L490.6,347.3z M492.9,337.8v3.2h1.3c0.9,0,1.5-0.1,1.8-0.2s0.5-0.3,0.7-0.6s0.3-0.6,0.3-0.9c0-0.4-0.1-0.8-0.4-1
		c-0.2-0.3-0.6-0.4-0.9-0.5s-0.8-0.1-1.7-0.1L492.9,337.8L492.9,337.8z"/>
	<path class="st12" d="M501.2,347.3v-11.5h3.7c1.4,0,2.3,0.1,2.8,0.2c0.7,0.2,1.2,0.5,1.6,1.1s0.7,1.3,0.7,2.2
		c0,0.7-0.1,1.3-0.4,1.8s-0.6,0.9-1,1.1c-0.4,0.3-0.8,0.5-1.2,0.5c-0.6,0.1-1.4,0.2-2.4,0.2h-1.5v4.3L501.2,347.3L501.2,347.3
		L501.2,347.3z M503.6,337.8v3.2h1.3c0.9,0,1.5-0.1,1.8-0.2s0.5-0.3,0.7-0.6s0.3-0.6,0.3-0.9c0-0.4-0.1-0.8-0.4-1
		c-0.2-0.3-0.6-0.4-0.9-0.5s-0.8-0.1-1.7-0.1L503.6,337.8L503.6,337.8z"/>
	<path class="st12" d="M512,347.3v-11.4h2.3v9.4h5.8v1.9L512,347.3L512,347.3z"/>
	<path class="st12" d="M523.2,347.3v-4.8l-4.2-6.6h2.7l2.7,4.5l2.6-4.5h2.7l-4.2,6.6v4.8H523.2z"/>
	<path class="st12" d="M534.5,343.5l2.2-0.2c0.1,0.8,0.4,1.3,0.8,1.7s1,0.5,1.7,0.5s1.3-0.2,1.7-0.5s0.6-0.7,0.6-1.1
		c0-0.3-0.1-0.5-0.2-0.7c-0.2-0.2-0.4-0.4-0.8-0.5c-0.3-0.1-0.9-0.3-1.9-0.5c-1.2-0.3-2.1-0.7-2.6-1.1c-0.7-0.6-1.1-1.4-1.1-2.3
		c0-0.6,0.2-1.1,0.5-1.6s0.8-0.9,1.4-1.2c0.6-0.3,1.4-0.4,2.3-0.4c1.4,0,2.5,0.3,3.2,0.9s1.1,1.5,1.1,2.5l-2.3,0.1
		c-0.1-0.6-0.3-1-0.6-1.3s-0.8-0.4-1.5-0.4s-1.2,0.1-1.6,0.4c-0.2,0.2-0.4,0.4-0.4,0.7s0.1,0.5,0.3,0.7c0.3,0.2,1,0.5,2.1,0.8
		s2,0.5,2.5,0.8s1,0.7,1.3,1.2s0.5,1.1,0.5,1.8s-0.2,1.3-0.5,1.8c-0.4,0.6-0.9,1-1.5,1.3c-0.7,0.3-1.5,0.4-2.5,0.4
		c-1.4,0-2.6-0.3-3.3-1C535.1,345.8,534.6,344.8,534.5,343.5z"/>
	<path class="st12" d="M553.1,343.1l2.2,0.7c-0.3,1.2-0.9,2.2-1.7,2.8s-1.8,0.9-3,0.9c-1.5,0-2.8-0.5-3.8-1.6c-1-1-1.5-2.5-1.5-4.3
		c0-1.9,0.5-3.4,1.5-4.4s2.3-1.6,3.9-1.6c1.4,0,2.5,0.4,3.4,1.2c0.5,0.5,0.9,1.2,1.2,2.1l-2.3,0.5c-0.1-0.6-0.4-1.1-0.8-1.4
		s-1-0.5-1.6-0.5c-0.8,0-1.5,0.3-2.1,0.9c-0.5,0.6-0.8,1.6-0.8,3s0.3,2.5,0.8,3.1s1.2,0.9,2,0.9c0.6,0,1.1-0.2,1.6-0.6
		C552.5,344.5,552.9,343.9,553.1,343.1z"/>
	<path class="st12" d="M557.3,347.3v-11.5h2.3v4.5h4.5v-4.5h2.3v11.5h-2.3v-5h-4.5v5H557.3z"/>
	<path class="st12" d="M568.8,347.3v-11.5h8.5v1.9h-6.2v2.5h5.8v1.9h-5.8v3.1h6.4v1.9h-8.7V347.3z"/>
	<path class="st12" d="M579.5,347.3v-11.5h3.5l2.1,7.8l2.1-7.8h3.5v11.5h-2.1v-9l-2.3,9h-2.2l-2.3-9v9H579.5z"/>
	<path class="st12" d="M603.2,347.3h-2.5l-1-2.6h-4.6l-0.9,2.6h-2.5l4.5-11.5h2.4L603.2,347.3z M598.9,342.7l-1.6-4.2l-1.5,4.2
		H598.9z"/>
</g>
<path class="st13" d="M692.5,317.6H397.2c-3.8,0-6.9-6.2-6.9-14.1V62.4c0-7.7,3-14.1,6.9-14.1h295.4c3.8,0,6.9,6.2,6.9,14.1v241.2
	C699.5,311.4,696.3,317.6,692.5,317.6z"/>
<g>
	<g>
		<path class="st24" d="M1231.2,48.9c-1.5-1.4-3.2-2.6-5.1-3.4l-0.1-3.7c-1.5-0.5-3.1-0.8-4.7-0.9l-1.5,3.4c-2.1,0-4.2,0.4-6,1.2
			l-2.7-2.5c-1.4,0.7-2.7,1.6-4,2.6l1.3,3.4c-1.4,1.5-2.7,3.2-3.5,5.1l-3.7,0.1c-0.3,0.8-0.4,1.5-0.6,2.3s-0.3,1.5-0.3,2.3l3.4,1.5
			c0,2.1,0.5,4.1,1.2,6l-2.5,2.7c0.7,1.4,1.6,2.7,2.6,3.9l3.4-1.3c1.5,1.4,3.2,2.6,5.1,3.4l0.1,3.7c1.5,0.5,3.1,0.8,4.7,0.9l1.5-3.4
			c2.1,0,4.2-0.4,6-1.2l2.7,2.5c1.4-0.7,2.7-1.6,4-2.6l-1.3-3.4c1.4-1.5,2.6-3.3,3.4-5.1l3.7-0.1c0.5-1.5,0.8-3.1,0.9-4.7l-3.4-1.5
			c0-2.1-0.4-4.2-1.2-6l2.5-2.7c-0.7-1.4-1.6-2.7-2.6-4L1231.2,48.9z M1229,62.1c-1,5.1-5.9,8.3-10.9,7.3c-5.1-1-8.3-5.9-7.3-10.9
			c1-5.1,5.9-8.3,10.9-7.3l0,0C1226.8,52.2,1230,57.1,1229,62.1z"/>
		<path class="st25" d="M1280.6,39.8c-1.8-1.8-4-3.3-6.4-4.3l-0.1-4.6c-1.9-0.6-3.8-0.9-5.8-1.1l-1.9,4.3c-2.6,0-5.1,0.6-7.5,1.6
			l-3.3-3.2c-1.8,0.9-3.4,2-4.9,3.2l1.7,4.3c-1.8,1.8-3.3,4-4.3,6.4l-4.6,0.1c-0.3,0.9-0.6,1.9-0.8,2.9c-0.2,1-0.3,1.9-0.4,3
			l4.3,1.9c0,2.6,0.6,5.1,1.5,7.5l-3.2,3.4c0.9,1.8,2,3.4,3.3,4.8l4.2-1.7c1.8,1.8,4,3.3,6.4,4.3l0.1,4.6c0.9,0.3,1.9,0.6,2.9,0.8
			c1,0.2,1.9,0.4,3,0.4l1.9-4.3c2.6,0,5.1-0.6,7.5-1.5l3.3,3.2c1.8-0.9,3.4-2,4.8-3.3l-1.7-4.2c1.8-1.8,3.3-4,4.3-6.4l4.6-0.1
			c0.3-0.9,0.6-1.9,0.8-2.9c0.2-1,0.3-1.9,0.4-3l-4.3-1.9c0-2.6-0.6-5.1-1.5-7.5l3.2-3.3c-0.9-1.8-2-3.4-3.2-4.9L1280.6,39.8z
			 M1277.9,56.3c-1.2,6.3-7.2,10.3-13.6,9.1c-6.3-1.2-10.3-7.2-9.1-13.6c1.2-6.3,7.2-10.3,13.6-9.1c0,0,0,0,0.1,0
			C1275,44,1279.1,50,1277.9,56.3L1277.9,56.3z"/>
	</g>
	<path class="st26" d="M1261,94.9c1.7-1,2.1-3.2,1.1-4.8c-1-1.7-3.2-2.1-4.8-1.1c-1.7,1-2.1,3.2-1.1,4.8l0,0
		C1257.3,95.5,1259.4,96,1261,94.9L1261,94.9z"/>
	<path class="st27" d="M1246.8,89.5c1.1-0.7,1.5-2.1,0.7-3.3c-0.7-1.1-2.1-1.5-3.3-0.7c-1.1,0.7-1.5,2.1-0.7,3.3l0,0
		C1244.3,89.9,1245.7,90.2,1246.8,89.5L1246.8,89.5z"/>
	<path class="st28" d="M1243.1,30.5c1.3,0.3,2.5-0.6,2.8-1.9s-0.6-2.5-1.9-2.8s-2.5,0.6-2.8,1.9l0,0
		C1241,29,1241.8,30.2,1243.1,30.5L1243.1,30.5z"/>
	<line class="st29" x1="1264.7" y1="78.4" x2="1216.9" y2="81.4"/>
	<line class="st29" x1="1226.4" y1="38.9" x2="1247.5" y2="34.9"/>
</g>
<g>
	<g>
		<path class="st24" d="M1232.4,303.2c-1.5-1.4-3.2-2.6-5.1-3.4l-0.1-3.7c-1.5-0.5-3.1-0.8-4.7-0.9l-1.5,3.4c-2.1,0-4.2,0.5-6,1.2
			l-2.7-2.5c-1.4,0.7-2.7,1.6-4,2.6l1.3,3.4c-1.4,1.5-2.7,3.3-3.5,5.1l-3.7,0.1c-0.3,0.8-0.4,1.5-0.6,2.3s-0.3,1.5-0.3,2.3l3.4,1.5
			c0,2.1,0.5,4.1,1.2,6l-2.5,2.7c0.7,1.4,1.6,2.7,2.6,3.9l3.4-1.3c1.5,1.4,3.2,2.6,5.1,3.4l0.1,3.7c1.5,0.5,3.1,0.8,4.7,0.9l1.5-3.4
			c2.1,0,4.2-0.5,6-1.2l2.7,2.5c1.4-0.7,2.7-1.6,4-2.6l-1.3-3.4c1.4-1.5,2.6-3.3,3.4-5.1l3.7-0.1c0.5-1.5,0.8-3.1,0.9-4.7l-3.4-1.5
			c0-2.1-0.5-4.2-1.2-6l2.5-2.7c-0.7-1.4-1.6-2.7-2.6-4L1232.4,303.2z M1230.2,316.4c-1,5.1-5.9,8.3-10.9,7.3
			c-5.1-1-8.3-5.9-7.3-10.9c1-5.1,5.9-8.3,10.9-7.3l0,0C1228,306.4,1231.2,311.4,1230.2,316.4z"/>
		<path class="st25" d="M1281.8,294.1c-1.9-1.8-4-3.3-6.4-4.3l-0.1-4.6c-1.9-0.6-3.8-0.9-5.8-1.1l-1.9,4.3c-2.6,0-5.2,0.6-7.5,1.6
			l-3.3-3.2c-1.8,0.9-3.4,2-4.9,3.2l1.7,4.3c-1.8,1.9-3.3,4-4.3,6.4l-4.6,0.1c-0.3,0.9-0.6,1.9-0.8,2.9c-0.2,1-0.3,1.9-0.4,3
			l4.3,1.9c0,2.6,0.6,5.2,1.5,7.5l-3.2,3.4c0.9,1.8,2,3.4,3.3,4.8l4.2-1.7c1.9,1.8,4,3.3,6.4,4.3l0.1,4.6c0.9,0.3,1.9,0.6,2.9,0.8
			s1.9,0.4,3,0.4l1.9-4.3c2.6,0,5.2-0.6,7.5-1.5l3.3,3.2c1.8-0.9,3.4-2,4.8-3.3l-1.7-4.2c1.8-1.9,3.3-4,4.3-6.4l4.6-0.1
			c0.3-0.9,0.6-1.9,0.8-2.9c0.2-1,0.3-1.9,0.4-3l-4.3-1.9c0-2.6-0.6-5.2-1.5-7.5l3.2-3.3c-0.9-1.8-2-3.4-3.2-4.9L1281.8,294.1z
			 M1279.1,310.6c-1.2,6.3-7.3,10.4-13.6,9.1c-6.3-1.2-10.4-7.3-9.1-13.6c1.2-6.3,7.3-10.4,13.6-9.1c0,0,0,0,0.1,0
			C1276.2,298.3,1280.3,304.3,1279.1,310.6L1279.1,310.6z"/>
	</g>
	<path class="st26" d="M1262.3,349.2c1.7-1,2.1-3.2,1.1-4.8c-1-1.7-3.2-2.1-4.8-1.1c-1.7,1-2.1,3.2-1.1,4.8l0,0
		C1258.5,349.8,1260.6,350.3,1262.3,349.2L1262.3,349.2z"/>
	<path class="st27" d="M1248,343.8c1.1-0.7,1.5-2.1,0.7-3.3c-0.7-1.1-2.1-1.5-3.3-0.7s-1.5,2.1-0.7,3.3l0,0
		C1245.5,344.2,1246.9,344.5,1248,343.8L1248,343.8z"/>
	<path class="st28" d="M1244.3,284.7c1.3,0.3,2.5-0.6,2.8-1.9s-0.6-2.5-1.9-2.8s-2.5,0.6-2.8,1.9l0,0
		C1242.2,283.3,1243,284.5,1244.3,284.7L1244.3,284.7z"/>
	<line class="st29" x1="1265.9" y1="332.7" x2="1218.1" y2="335.7"/>
	<line class="st29" x1="1227.6" y1="293.1" x2="1248.7" y2="289.2"/>
</g>
<g>
	<g>
		<path class="st25" d="M1205.6,169.6c-1.7,2.4-2.9,5-3.6,7.9l-5.1,1c-0.3,2.2-0.4,4.4-0.2,6.6l5.1,1.3c0.5,2.9,1.6,5.6,3.1,8.1
			l-2.9,4.2c1.3,1.8,2.8,3.4,4.5,4.9l4.5-2.7c2.4,1.7,5,2.9,7.9,3.6l1,5.1c1,0.1,2.2,0.3,3.3,0.3s2.2-0.1,3.4-0.1l1.3-5.1
			c2.9-0.5,5.6-1.6,8.1-3l4.3,2.9c1.8-1.3,3.4-2.8,4.7-4.5l-2.7-4.4c1.7-2.4,2.9-5,3.6-7.9l5.1-1c0.1-1,0.3-2.2,0.3-3.3
			c0-1.2,0.1-2.2-0.1-3.4l-5.1-1.3c-0.5-2.9-1.6-5.6-3-8.1l2.9-4.2c-1.3-1.8-2.8-3.4-4.5-4.7l-4.4,2.7c-2.4-1.7-5-2.9-7.9-3.6
			l-1-5.1c-1-0.1-2.2-0.3-3.3-0.3c-1.2,0-2.2,0.1-3.4,0.1l-1.3,5.1c-2.9,0.5-5.6,1.6-8.1,3l-4.2-2.9c-1.8,1.3-3.4,2.8-4.9,4.5
			L1205.6,169.6z M1224.3,169.5c7.2,0.2,12.8,6.1,12.6,13.4c-0.2,7.2-6.1,12.8-13.4,12.6c-7.2-0.2-12.8-6.1-12.6-13.4c0,0,0,0,0-0.1
			C1211.2,175,1217.2,169.3,1224.3,169.5L1224.3,169.5z"/>
		<path class="st18" d="M1256.4,188.6c-1.1,1.5-1.8,3.1-2.2,4.9l-3.1,0.6c-0.1,0.7-0.2,1.4-0.2,2.1c0,0.7,0,1.4,0.1,2.1l3.1,0.8
			c0.3,1.7,0.9,3.5,1.9,5l-1.8,2.6c0.8,1.1,1.8,2.1,2.8,3l2.8-1.7c1.5,1.1,3.1,1.8,4.9,2.2l0.6,3.1c0.7,0.1,1.4,0.2,2.1,0.2
			s1.4,0,2.1-0.1l0.8-3.1c1.7-0.3,3.5-0.9,5-1.9l2.6,1.8c1.1-0.8,2.1-1.8,3-2.8l-1.7-2.7c1.1-1.5,1.8-3.1,2.2-4.9l3.1-0.6
			c0.1-0.7,0.2-1.4,0.2-2.1c0-0.7,0-1.4-0.1-2.1l-3.1-0.8c-0.3-1.7-0.9-3.5-1.9-5l1.8-2.6c-0.8-1.1-1.8-2.1-2.8-3l-2.7,1.7
			c-1.5-1.1-3.1-1.8-4.9-2.2l-0.6-3.1c-0.7-0.1-1.4-0.2-2.1-0.2s-1.4,0-2.1,0.1l-0.8,3.1c-1.7,0.3-3.5,0.9-5,1.9l-2.6-1.8
			c-1.1,0.8-2.1,1.8-3,2.8L1256.4,188.6z M1268,188.5c4.4,0.1,8,3.8,7.9,8.3c-0.1,4.4-3.8,8-8.3,7.9c-4.4-0.1-8-3.8-7.9-8.3l0,0
			C1259.8,191.9,1263.5,188.4,1268,188.5L1268,188.5z"/>
	</g>
	<line class="st29" x1="1249.3" y1="168.5" x2="1265.9" y2="176.7"/>
	<path class="st26" d="M1257.1,163.1c-1.9,1.1-2.5,3.5-1.3,5.4s3.5,2.5,5.4,1.3c1.9-1.1,2.5-3.5,1.3-5.4l0,0
		C1261.4,162.5,1259,161.9,1257.1,163.1L1257.1,163.1z"/>
	<path class="st27" d="M1273,169.4c-1.3,0.8-1.7,2.4-0.9,3.7c0.8,1.3,2.4,1.7,3.7,0.9c1.3-0.8,1.7-2.4,0.9-3.7l0,0
		C1275.9,169,1274.3,168.6,1273,169.4L1273,169.4z"/>
	<path class="st28" d="M1213.6,215.8c0-1.5-1.1-2.7-2.6-2.7s-2.7,1.1-2.7,2.6s1.1,2.7,2.6,2.7l0,0
		C1212.4,218.5,1213.6,217.3,1213.6,215.8L1213.6,215.8z"/>
	<line class="st29" x1="1265.3" y1="213.3" x2="1226.6" y2="209.7"/>
</g>
<g class="st11">
	<path class="st12" d="M1216.8,129.3h-2.5l-1-2.6h-4.6l-0.9,2.6h-2.5l4.5-11.5h2.4L1216.8,129.3z M1212.5,124.8l-1.6-4.2l-1.5,4.2
		H1212.5z"/>
	<path class="st12" d="M1218,129.3v-11.5h2.2l4.7,7.6v-7.6h2.1v11.5h-2.3l-4.6-7.5v7.5H1218z"/>
	<path class="st12" d="M1239.9,129.3h-2.5l-1-2.6h-4.6l-0.9,2.6h-2.5l4.5-11.5h2.4L1239.9,129.3z M1235.6,124.8l-1.6-4.2l-1.5,4.2
		H1235.6z"/>
	<path class="st12" d="M1241.2,129.3V118h2.3v9.4h5.8v1.9H1241.2L1241.2,129.3z"/>
	<path class="st12" d="M1252.4,129.3v-4.8l-4.2-6.6h2.7l2.7,4.5l2.6-4.5h2.7l-4.2,6.6v4.8H1252.4z"/>
	<path class="st12" d="M1259.1,129.3v-2.1l6-7.4h-5.3v-1.9h8.4v1.8l-6.3,7.7h6.5v1.9H1259.1z"/>
	<path class="st12" d="M1269.9,129.3v-11.5h8.5v1.9h-6.2v2.5h5.8v1.9h-5.8v3.1h6.4v1.9h-8.7L1269.9,129.3L1269.9,129.3z"/>
</g>
<path class="st13" d="M1355,104.6h-220.5c-2.8,0-5.2-2-5.2-4.5V22.6c0-2.5,2.3-4.5,5.2-4.5H1355c2.8,0,5.2,2,5.2,4.5v77.5
	C1360.2,102.6,1357.8,104.6,1355,104.6z"/>
<g class="st11">
	<path class="st12" d="M1217.4,380.8h-2.5l-1-2.6h-4.6l-0.9,2.6h-2.5l4.5-11.5h2.4L1217.4,380.8z M1213.2,376.2l-1.6-4.2l-1.5,4.2
		H1213.2z"/>
	<path class="st12" d="M1218.7,380.8v-11.5h2.2l4.7,7.6v-7.6h2.1v11.5h-2.3l-4.6-7.5v7.5H1218.7z"/>
	<path class="st12" d="M1240.5,380.8h-2.5l-1-2.6h-4.6l-0.9,2.6h-2.5l4.5-11.5h2.4L1240.5,380.8z M1236.3,376.2l-1.6-4.2l-1.5,4.2
		H1236.3z"/>
	<path class="st12" d="M1241.8,380.8v-11.4h2.3v9.4h5.8v1.9L1241.8,380.8L1241.8,380.8z"/>
	<path class="st12" d="M1253.1,380.8V376l-4.2-6.6h2.7l2.7,4.5l2.6-4.5h2.7l-4.2,6.6v4.8H1253.1z"/>
	<path class="st12" d="M1259.8,380.8v-2.1l6-7.4h-5.3v-1.9h8.4v1.8l-6.3,7.7h6.5v1.9H1259.8z"/>
	<path class="st12" d="M1270.5,380.8v-11.5h8.5v1.9h-6.2v2.5h5.8v1.9h-5.8v3.1h6.4v1.9h-8.7L1270.5,380.8L1270.5,380.8z"/>
</g>
<path class="st13" d="M1355.6,356h-220.5c-2.8,0-5.2-2-5.2-4.5V274c0-2.5,2.3-4.5,5.2-4.5h220.5c2.8,0,5.2,2,5.2,4.5v77.5
	C1360.8,354,1358.5,356,1355.6,356z"/>
<g class="st11">
	<path class="st12" d="M1217.3,252.1h-2.5l-1-2.6h-4.6l-0.9,2.6h-2.5l4.5-11.5h2.4L1217.3,252.1z M1213,247.5l-1.6-4.2l-1.5,4.2
		H1213z"/>
	<path class="st12" d="M1218.5,252.1v-11.5h2.2l4.7,7.6v-7.6h2.1v11.5h-2.3l-4.6-7.5v7.5H1218.5z"/>
	<path class="st12" d="M1240.4,252.1h-2.5l-1-2.6h-4.6l-0.9,2.6h-2.5l4.5-11.5h2.4L1240.4,252.1z M1236.1,247.5l-1.6-4.2l-1.5,4.2
		H1236.1z"/>
	<path class="st12" d="M1241.7,252.1v-11.4h2.3v9.4h5.8v1.9L1241.7,252.1L1241.7,252.1z"/>
	<path class="st12" d="M1252.9,252.1v-4.8l-4.2-6.6h2.7l2.7,4.5l2.6-4.5h2.7l-4.2,6.6v4.8H1252.9z"/>
	<path class="st12" d="M1259.6,252.1V250l6-7.4h-5.3v-1.9h8.4v1.8l-6.3,7.7h6.5v1.9H1259.6z"/>
	<path class="st12" d="M1270.4,252.1v-11.5h8.5v1.9h-6.2v2.5h5.8v1.9h-5.8v3.1h6.4v1.9h-8.7L1270.4,252.1L1270.4,252.1z"/>
</g>
<path class="st13" d="M1355.5,229.7h-220.6c-2.8,0-5.2-2-5.2-4.5v-77.5c0-2.5,2.3-4.5,5.2-4.5h220.6c2.8,0,5.2,2,5.2,4.5v77.5
	C1360.7,227.7,1358.3,229.7,1355.5,229.7z"/>
<g>
	<g>
		<line class="st13" x1="327.2" y1="190.2" x2="382.6" y2="190.2"/>
		<g>
			<polygon class="st30" points="381.2,195.2 389.8,190.2 381.2,185.2 			"/>
		</g>
	</g>
</g>
<g>
	<g>
		<line class="st13" x1="699.5" y1="186.9" x2="747.5" y2="186.9"/>
		<g>
			<polygon class="st30" points="746.1,191.9 754.7,186.9 746.1,181.9 			"/>
		</g>
	</g>
</g>
<g>
	<g>
		<line class="st13" x1="1063.9" y1="61.4" x2="1121.9" y2="61.4"/>
		<g>
			<polygon class="st30" points="1120.4,66.3 1129,61.4 1120.4,56.4 			"/>
		</g>
	</g>
</g>
<g>
	<g>
		<line class="st13" x1="1064.6" y1="182.5" x2="1122.6" y2="182.5"/>
		<g>
			<polygon class="st30" points="1121.1,187.4 1129.8,182.5 1121.1,177.5 			"/>
		</g>
	</g>
</g>
<g>
	<g>
		<line class="st13" x1="1064.8" y1="289.6" x2="1122.8" y2="289.6"/>
		<g>
			<polygon class="st30" points="1121.3,294.6 1129.9,289.6 1121.3,284.6 			"/>
		</g>
	</g>
</g>
</svg>
